[0] Config.pm:354> INFO - This is Biber 2.6
[0] Config.pm:357> INFO - Logfile is 'latex.blg'
[21] biber:302> INFO - === lun abr 10, 2017, 10:14:51
[31] Biber.pm:359> INFO - Reading 'latex.bcf'
[95] Biber.pm:823> INFO - Found 81 citekeys in bib section 0
[105] Biber.pm:3658> INFO - Processing section 0
[114] Biber.pm:3828> INFO - Looking for bibtex format file '../../bibliografia/bibliografia.bib' for section 0
[119] bibtex.pm:1425> INFO - Decoding LaTeX character macros into UTF-8
[124] bibtex.pm:1282> INFO - Found BibTeX data source '../../bibliografia/bibliografia.bib'
[187] Utils.pm:164> WARN - Name "Lenk, Christian, Hoppe, Nils" has too many commas: skipping name
[291] UCollate.pm:68> INFO - Overriding locale 'es-ES' defaults 'normalization = NFD' with 'normalization = prenormalized'
[291] UCollate.pm:68> INFO - Overriding locale 'es-ES' defaults 'variable = shifted' with 'variable = non-ignorable'
[291] Biber.pm:3487> INFO - Sorting list 'nty/global/' of type 'entry' with scheme 'nty' and locale 'es-ES'
[337] bbl.pm:597> INFO - Writing 'latex.bbl' with encoding 'UTF-8'
[345] bbl.pm:701> INFO - Output to latex.bbl
[345] Biber.pm:109> INFO - WARNINGS: 1
