\BOOKMARK [0][-]{chapter*.2}{T\355tulo}{}% 1
\BOOKMARK [0][-]{chapter*.3}{Planteamiento}{}% 2
\BOOKMARK [1][-]{section*.4}{Problema}{chapter*.3}% 3
\BOOKMARK [1][-]{section*.5}{Pregunta}{chapter*.3}% 4
\BOOKMARK [1][-]{section*.6}{Tesis}{chapter*.3}% 5
\BOOKMARK [1][-]{section*.7}{Hip\363tesis}{chapter*.3}% 6
\BOOKMARK [0][-]{chapter*.8}{Objetivos}{}% 7
\BOOKMARK [1][-]{section*.9}{General}{chapter*.8}% 8
\BOOKMARK [1][-]{section*.10}{Particulares}{chapter*.8}% 9
\BOOKMARK [0][-]{chapter*.11}{Relevancia}{}% 10
\BOOKMARK [1][-]{section*.12}{Relevancia filos\363fica}{chapter*.11}% 11
\BOOKMARK [1][-]{section*.13}{Relevancia no filos\363fica}{chapter*.11}% 12
\BOOKMARK [0][-]{chapter*.14}{Aportaci\363n original}{}% 13
\BOOKMARK [0][-]{chapter*.15}{\315ndice tentativo}{}% 14
\BOOKMARK [0][-]{chapter*.16}{Cronograma}{}% 15
\BOOKMARK [0][-]{chapter*.17}{Bibliograf\355a}{}% 16
\BOOKMARK [1][-]{section*.18}{Primaria}{chapter*.17}% 17
\BOOKMARK [1][-]{section*.19}{Secundaria}{chapter*.17}% 18
