% $ biblatex auxiliary file $
% $ biblatex bbl format version 2.8 $
% Do not modify the above lines!
%
% This is an auxiliary file used by the 'biblatex' package.
% This file may safely be deleted. It will be recreated by
% biber as required.
%
\begingroup
\makeatletter
\@ifundefined{ver@biblatex.sty}
  {\@latex@error
     {Missing 'biblatex' package}
     {The bibliography requires the 'biblatex' package.}
      \aftergroup\endinput}
  {}
\endgroup


\refsection{0}
  \sortlist[entry]{nty/global/}
    \entry{cerlalc2015a}{report}{}
      \name{author}{1}{}{%
        {{uniquename=0,hash=aae9fc04e8a8716549f0a4a913a45b10}{%
           family={AA.},
           familyi={A\bibinitperiod},
           given={VV.},
           giveni={V\bibinitperiod}}}%
      }
      \list{institution}{1}{%
        {CERLALC}%
      }
      \strng{namehash}{aae9fc04e8a8716549f0a4a913a45b10}
      \strng{fullhash}{aae9fc04e8a8716549f0a4a913a45b10}
      \strng{authornamehash}{aae9fc04e8a8716549f0a4a913a45b10}
      \strng{authorfullhash}{aae9fc04e8a8716549f0a4a913a45b10}
      \field{sortinit}{A}
      \field{sortinithash}{b685c7856330eaee22789815b49de9bb}
      \field{labelnamesource}{author}
      \field{labeltitlesource}{title}
      \field{title}{América Latina: la balanza comercial en propiedad intelectual}
      \field{type}{techreport}
      \field{year}{2015}
      \verb{file}
      \verb :recursos/cerlalc2015a.pdf:PDF
      \endverb
      \verb{url}
      \verb https://github.com/NikaZhenya/taller-flacso/blob/master/6-sabado/recursos/cerlalc.pdf
      \endverb
      \keyw{Secundaria}
    \endentry
    \entry{open2016a}{booklet}{}
      \name{author}{1}{}{%
        {{uniquename=0,hash=aae9fc04e8a8716549f0a4a913a45b10}{%
           family={AA.},
           familyi={A\bibinitperiod},
           given={VV.},
           giveni={V\bibinitperiod}}}%
      }
      \strng{namehash}{aae9fc04e8a8716549f0a4a913a45b10}
      \strng{fullhash}{aae9fc04e8a8716549f0a4a913a45b10}
      \strng{authornamehash}{aae9fc04e8a8716549f0a4a913a45b10}
      \strng{authorfullhash}{aae9fc04e8a8716549f0a4a913a45b10}
      \field{sortinit}{A}
      \field{sortinithash}{b685c7856330eaee22789815b49de9bb}
      \field{labelnamesource}{author}
      \field{labeltitlesource}{title}
      \field{title}{Budapest Open Access Initiative, XV aniversario}
      \field{year}{2016}
      \verb{file}
      \verb :recursos/varios-boai15.pdf:PDF
      \endverb
      \verb{url}
      \verb http://www.budapestopenaccessinitiative.org/boai15/Untitleddocument.docx
      \endverb
      \keyw{Primaria}
    \endentry
    \entry{indautor1996a}{misc}{}
      \name{author}{1}{}{%
        {{uniquename=0,hash=aae9fc04e8a8716549f0a4a913a45b10}{%
           family={AA.},
           familyi={A\bibinitperiod},
           given={VV.},
           giveni={V\bibinitperiod}}}%
      }
      \strng{namehash}{aae9fc04e8a8716549f0a4a913a45b10}
      \strng{fullhash}{aae9fc04e8a8716549f0a4a913a45b10}
      \strng{authornamehash}{aae9fc04e8a8716549f0a4a913a45b10}
      \strng{authorfullhash}{aae9fc04e8a8716549f0a4a913a45b10}
      \field{sortinit}{A}
      \field{sortinithash}{b685c7856330eaee22789815b49de9bb}
      \field{labelnamesource}{author}
      \field{labeltitlesource}{title}
      \field{title}{Ley Federal del Derecho de Autor}
      \field{year}{1996}
      \verb{file}
      \verb :recursos/indautor1996a.pdf:PDF
      \endverb
      \verb{url}
      \verb http://www.indautor.gob.mx/documentos_normas/leyfederal.pdf
      \endverb
      \keyw{Secundaria}
    \endentry
    \entry{althusser1970a}{book}{}
      \name{author}{1}{}{%
        {{uniquename=0,hash=1a1c365db4210310d8e55943fc4adc9d}{%
           family={Althusser},
           familyi={A\bibinitperiod},
           given={Louis},
           giveni={L\bibinitperiod}}}%
      }
      \strng{namehash}{1a1c365db4210310d8e55943fc4adc9d}
      \strng{fullhash}{1a1c365db4210310d8e55943fc4adc9d}
      \strng{authornamehash}{1a1c365db4210310d8e55943fc4adc9d}
      \strng{authorfullhash}{1a1c365db4210310d8e55943fc4adc9d}
      \field{sortinit}{A}
      \field{sortinithash}{b685c7856330eaee22789815b49de9bb}
      \field{labelnamesource}{author}
      \field{labeltitlesource}{title}
      \field{title}{Ideología y aparatos ideológicos del Estado}
      \field{year}{1970}
      \verb{file}
      \verb :recursos/althusser1970a.epub:ePUB
      \endverb
      \verb{url}
      \verb http://libgen.io/search.php?req=aparatos+ideol%C3%B3gicos+del+estado&lg_topic=libgen&open=0&view=simple&res=25&phrase=1&column=def
      \endverb
      \keyw{Primaria}
    \endentry
    \entry{bbc2017a}{online}{}
      \field{sortinit}{A}
      \field{sortinithash}{b685c7856330eaee22789815b49de9bb}
      \field{labeltitlesource}{title}
      \field{title}{Anulan corazón de “Ley Televisa”}
      \verb{file}
      \verb :recursos/bbc2017a.htm:URL
      \endverb
      \verb{url}
      \verb http://news.bbc.co.uk/hi/spanish/latin_america/newsid_6726000/6726335.stm
      \endverb
      \keyw{Secundaria}
    \endentry
    \entry{arkaute2008a}{inbook}{}
      \name{author}{1}{}{%
        {{uniquename=0,hash=cad03c88208912994f5750a81b0ee107}{%
           family={Arkaute},
           familyi={A\bibinitperiod},
           given={Natxo\bibnamedelima Rodríguez},
           giveni={N\bibinitperiod\bibinitdelim R\bibinitperiod}}}%
      }
      \name{editor}{2}{}{%
        {{hash=e58695bc8d178b9cc8a87d3e80508a84}{%
           family={López},
           familyi={L\bibinitperiod},
           given={Albert},
           giveni={A\bibinitperiod}}}%
        {{hash=76ad83196464f4f833da97a57490b9d5}{%
           family={Ramírez},
           familyi={R\bibinitperiod},
           given={Eduardo},
           giveni={E\bibinitperiod}}}%
      }
      \list{publisher}{1}{%
        {Centro Cultural de España en México — Universidad de las Américas Puebla}%
      }
      \strng{namehash}{cad03c88208912994f5750a81b0ee107}
      \strng{fullhash}{cad03c88208912994f5750a81b0ee107}
      \strng{authornamehash}{cad03c88208912994f5750a81b0ee107}
      \strng{authorfullhash}{cad03c88208912994f5750a81b0ee107}
      \strng{editornamehash}{a1c70f3ab9b94a9da20ddf3ad0b100fe}
      \strng{editorfullhash}{a1c70f3ab9b94a9da20ddf3ad0b100fe}
      \field{sortinit}{A}
      \field{sortinithash}{b685c7856330eaee22789815b49de9bb}
      \field{labelnamesource}{author}
      \field{labeltitlesource}{title}
      \field{chapter}{Producción artística y copyleft en el nuevo entorno digital}
      \field{title}{Propiedad intelectual, nuevas tecnologías y libre acceso a la cultura}
      \field{year}{2008}
      \verb{file}
      \verb :recursos/varios-pi_nt_lia.pdf:PDF
      \endverb
      \verb{url}
      \verb https://www.academia.edu/2057461/Propiedad_intelectual_nuevas_tecnolog%C3%ADas_y_libre_acceso_a_la_cultura_-_Alberto_L%C3%B3pez_Cuenca_Eduardo_Ram%C3%ADrez_Pedrajo_coordinadores_
      \endverb
      \keyw{Secundaria}
    \endentry
    \entry{arteaga2008a}{inbook}{}
      \name{author}{1}{}{%
        {{uniquename=0,hash=e2322b61f8b85bdf826a881f7c950de4}{%
           family={Arteaga},
           familyi={A\bibinitperiod},
           given={Carmen},
           giveni={C\bibinitperiod}}}%
      }
      \name{editor}{2}{}{%
        {{hash=e58695bc8d178b9cc8a87d3e80508a84}{%
           family={López},
           familyi={L\bibinitperiod},
           given={Albert},
           giveni={A\bibinitperiod}}}%
        {{hash=76ad83196464f4f833da97a57490b9d5}{%
           family={Ramírez},
           familyi={R\bibinitperiod},
           given={Eduardo},
           giveni={E\bibinitperiod}}}%
      }
      \list{publisher}{1}{%
        {Centro Cultural de España en México — Universidad de las Américas Puebla}%
      }
      \strng{namehash}{e2322b61f8b85bdf826a881f7c950de4}
      \strng{fullhash}{e2322b61f8b85bdf826a881f7c950de4}
      \strng{authornamehash}{e2322b61f8b85bdf826a881f7c950de4}
      \strng{authorfullhash}{e2322b61f8b85bdf826a881f7c950de4}
      \strng{editornamehash}{a1c70f3ab9b94a9da20ddf3ad0b100fe}
      \strng{editorfullhash}{a1c70f3ab9b94a9da20ddf3ad0b100fe}
      \field{sortinit}{A}
      \field{sortinithash}{b685c7856330eaee22789815b49de9bb}
      \field{labelnamesource}{author}
      \field{labeltitlesource}{title}
      \field{chapter}{Marco legal del derecho de autor en México}
      \field{title}{Propiedad intelectual, nuevas tecnologías y libre acceso a la cultura}
      \field{year}{2008}
      \verb{file}
      \verb :recursos/varios-pi_nt_lia.pdf:PDF
      \endverb
      \verb{url}
      \verb https://www.academia.edu/2057461/Propiedad_intelectual_nuevas_tecnolog%C3%ADas_y_libre_acceso_a_la_cultura_-_Alberto_L%C3%B3pez_Cuenca_Eduardo_Ram%C3%ADrez_Pedrajo_coordinadores_
      \endverb
      \keyw{Secundaria}
    \endentry
    \entry{barlow2016a}{inbook}{}
      \name{author}{1}{}{%
        {{uniquename=0,hash=fd4082474f0d5b7ec77313dfa696f85a}{%
           family={Barlow},
           familyi={B\bibinitperiod},
           given={John\bibnamedelima Perry},
           giveni={J\bibinitperiod\bibinitdelim P\bibinitperiod}}}%
      }
      \list{publisher}{1}{%
        {Perro Triste}%
      }
      \strng{namehash}{fd4082474f0d5b7ec77313dfa696f85a}
      \strng{fullhash}{fd4082474f0d5b7ec77313dfa696f85a}
      \strng{authornamehash}{fd4082474f0d5b7ec77313dfa696f85a}
      \strng{authorfullhash}{fd4082474f0d5b7ec77313dfa696f85a}
      \field{sortinit}{B}
      \field{sortinithash}{4ecbea03efd0532989d3836d1a048c32}
      \field{labelnamesource}{author}
      \field{labeltitlesource}{title}
      \field{chapter}{Vender vino sin botellas}
      \field{isbn}{9786079718404}
      \field{title}{¿Propiedad intelectual? Una recopilación de ensayos críticos}
      \field{year}{2016}
      \verb{file}
      \verb :recursos/varios-pi_pt.epub:ePUB
      \endverb
      \verb{url}
      \verb https://github.com/ColectivoPerroTriste/Ebooks/blob/master/Colecci%C3%B3n%20Delta/Libros/Propiedad%20intelectual/PropiedadIntelectual.epub
      \endverb
      \keyw{Primaria}
    \endentry
    \entry{barron2012a}{article}{}
      \name{author}{1}{}{%
        {{uniquename=0,hash=e531dd86727a07a24876feab092eda70}{%
           family={Barron},
           familyi={B\bibinitperiod},
           given={Anne},
           giveni={A\bibinitperiod}}}%
      }
      \strng{namehash}{e531dd86727a07a24876feab092eda70}
      \strng{fullhash}{e531dd86727a07a24876feab092eda70}
      \strng{authornamehash}{e531dd86727a07a24876feab092eda70}
      \strng{authorfullhash}{e531dd86727a07a24876feab092eda70}
      \field{sortinit}{B}
      \field{sortinithash}{4ecbea03efd0532989d3836d1a048c32}
      \field{labelnamesource}{author}
      \field{labeltitlesource}{title}
      \field{issn}{1573-0522}
      \field{journaltitle}{Law and Philosophy}
      \field{number}{1}
      \field{title}{Kant, Copyright and Communicative Freedom}
      \field{volume}{31}
      \field{year}{2012}
      \field{pages}{1\bibrangedash 48}
      \range{pages}{48}
      \verb{file}
      \verb :recursos/barron2012a.pdf:PDF
      \endverb
      \verb{url}
      \verb http://download.springer.com/static/pdf/141/art%253A10.1007%252Fs10982-011-9114-1.pdf?originUrl=http%3A%2F%2Flink.springer.com%2Farticle%2F10.1007%2Fs10982-011-9114-1&token2=exp=1487703458~acl=%2Fstatic%2Fpdf%2F141%2Fart%25253A10.1007%25252Fs10982-011-9114-1.pdf%3ForiginUrl%3Dhttp%253A%252F%252Flink.springer.com%252Farticle%252F10.1007%252Fs10982-011-9114-1*~hmac=dd161f43b747b675a0cd1b99a74a449f45eb77031fe27bdcbde4c5191e6fd9f7
      \endverb
      \keyw{Primaria}
    \endentry
    \entry{barthes1968a}{booklet}{}
      \name{author}{1}{}{%
        {{uniquename=0,hash=1b230e91c108eeaca0348e9eba71249c}{%
           family={Barthes},
           familyi={B\bibinitperiod},
           given={Roland},
           giveni={R\bibinitperiod}}}%
      }
      \strng{namehash}{1b230e91c108eeaca0348e9eba71249c}
      \strng{fullhash}{1b230e91c108eeaca0348e9eba71249c}
      \strng{authornamehash}{1b230e91c108eeaca0348e9eba71249c}
      \strng{authorfullhash}{1b230e91c108eeaca0348e9eba71249c}
      \field{sortinit}{B}
      \field{sortinithash}{4ecbea03efd0532989d3836d1a048c32}
      \field{labelnamesource}{author}
      \field{labeltitlesource}{title}
      \field{title}{La muerte del autor}
      \field{year}{1968}
      \verb{file}
      \verb Notas:recursos/barthes1968a.txt:Text;:recursos/barthes1968a.html:URL
      \endverb
      \verb{url}
      \verb http://www.cubaliteraria.cu/revista/laletradelescriba/n51/articulo-4.html
      \endverb
      \keyw{Primaria}
    \endentry
    \entry{boeta2008a}{inbook}{}
      \name{author}{1}{}{%
        {{uniquename=0,hash=01941176274dded5398f94a39d15b97c}{%
           family={Boeta},
           familyi={B\bibinitperiod},
           given={Sergio\bibnamedelima Augusto},
           giveni={S\bibinitperiod\bibinitdelim A\bibinitperiod}}}%
      }
      \name{editor}{2}{}{%
        {{hash=e58695bc8d178b9cc8a87d3e80508a84}{%
           family={López},
           familyi={L\bibinitperiod},
           given={Albert},
           giveni={A\bibinitperiod}}}%
        {{hash=76ad83196464f4f833da97a57490b9d5}{%
           family={Ramírez},
           familyi={R\bibinitperiod},
           given={Eduardo},
           giveni={E\bibinitperiod}}}%
      }
      \list{publisher}{1}{%
        {Centro Cultural de España en México — Universidad de las Américas Puebla}%
      }
      \strng{namehash}{01941176274dded5398f94a39d15b97c}
      \strng{fullhash}{01941176274dded5398f94a39d15b97c}
      \strng{authornamehash}{01941176274dded5398f94a39d15b97c}
      \strng{authorfullhash}{01941176274dded5398f94a39d15b97c}
      \strng{editornamehash}{a1c70f3ab9b94a9da20ddf3ad0b100fe}
      \strng{editorfullhash}{a1c70f3ab9b94a9da20ddf3ad0b100fe}
      \field{sortinit}{B}
      \field{sortinithash}{4ecbea03efd0532989d3836d1a048c32}
      \field{labelnamesource}{author}
      \field{labeltitlesource}{title}
      \field{chapter}{¿Limitar legalmente el acceso a la cultura?}
      \field{title}{Propiedad intelectual, nuevas tecnologías y libre acceso a la cultura}
      \field{year}{2008}
      \verb{file}
      \verb :recursos/varios-pi_nt_lia.pdf:PDF
      \endverb
      \verb{url}
      \verb https://www.academia.edu/2057461/Propiedad_intelectual_nuevas_tecnolog%C3%ADas_y_libre_acceso_a_la_cultura_-_Alberto_L%C3%B3pez_Cuenca_Eduardo_Ram%C3%ADrez_Pedrajo_coordinadores_
      \endverb
      \keyw{Secundaria}
    \endentry
    \entry{bollier2016a}{inbook}{}
      \name{author}{1}{}{%
        {{uniquename=0,hash=7cceec089d88181e6aeb8c9faea59420}{%
           family={Bollier},
           familyi={B\bibinitperiod},
           given={David},
           giveni={D\bibinitperiod}}}%
      }
      \list{publisher}{1}{%
        {Perro Triste}%
      }
      \strng{namehash}{7cceec089d88181e6aeb8c9faea59420}
      \strng{fullhash}{7cceec089d88181e6aeb8c9faea59420}
      \strng{authornamehash}{7cceec089d88181e6aeb8c9faea59420}
      \strng{authorfullhash}{7cceec089d88181e6aeb8c9faea59420}
      \field{sortinit}{B}
      \field{sortinithash}{4ecbea03efd0532989d3836d1a048c32}
      \field{labelnamesource}{author}
      \field{labeltitlesource}{title}
      \field{chapter}{El redescubrimiento del procomún}
      \field{isbn}{9786079718404}
      \field{title}{¿Propiedad intelectual? Una recopilación de ensayos críticos}
      \field{year}{2016}
      \verb{file}
      \verb :recursos/varios-pi_pt.epub:ePUB
      \endverb
      \verb{url}
      \verb https://github.com/ColectivoPerroTriste/Ebooks/blob/master/Colecci%C3%B3n%20Delta/Libros/Propiedad%20intelectual/PropiedadIntelectual.epub
      \endverb
      \keyw{Secundaria}
    \endentry
    \entry{bourdieu2008a}{book}{}
      \name{author}{1}{}{%
        {{uniquename=0,hash=66fa13ccac127aceaa40508629646509}{%
           family={Bourdieu},
           familyi={B\bibinitperiod},
           given={Pierre},
           giveni={P\bibinitperiod}}}%
      }
      \list{publisher}{1}{%
        {Siglo XXI}%
      }
      \strng{namehash}{66fa13ccac127aceaa40508629646509}
      \strng{fullhash}{66fa13ccac127aceaa40508629646509}
      \strng{authornamehash}{66fa13ccac127aceaa40508629646509}
      \strng{authorfullhash}{66fa13ccac127aceaa40508629646509}
      \field{sortinit}{B}
      \field{sortinithash}{4ecbea03efd0532989d3836d1a048c32}
      \field{labelnamesource}{author}
      \field{labeltitlesource}{title}
      \field{isbn}{9789876290289}
      \field{title}{Homo academicus}
      \field{year}{2008}
      \verb{file}
      \verb :recursos/bourdieu2008a.pdf:PDF
      \endverb
      \verb{url}
      \verb http://gen.lib.rus.ec/book/index.php?md5=308667934F8464CF490EE6318E4D1434
      \endverb
      \keyw{Primaria}
    \endentry
    \entry{bravo2005a}{book}{}
      \name{author}{1}{}{%
        {{uniquename=0,hash=cd1324abf4fa3b41a4a201cedc011fc7}{%
           family={Bravo\bibnamedelima Bueno},
           familyi={B\bibinitperiod\bibinitdelim B\bibinitperiod},
           given={David},
           giveni={D\bibinitperiod}}}%
      }
      \strng{namehash}{cd1324abf4fa3b41a4a201cedc011fc7}
      \strng{fullhash}{cd1324abf4fa3b41a4a201cedc011fc7}
      \strng{authornamehash}{cd1324abf4fa3b41a4a201cedc011fc7}
      \strng{authorfullhash}{cd1324abf4fa3b41a4a201cedc011fc7}
      \field{sortinit}{B}
      \field{sortinithash}{4ecbea03efd0532989d3836d1a048c32}
      \field{labelnamesource}{author}
      \field{labeltitlesource}{title}
      \field{title}{Copia este libro}
      \field{year}{2005}
      \verb{file}
      \verb :recursos/bravo2005a.pdf:PDF
      \endverb
      \verb{url}
      \verb http://elastico.net/archives/005194.html
      \endverb
      \keyw{Secundaria}
    \endentry
    \entry{breakey2010a}{article}{}
      \name{author}{1}{}{%
        {{uniquename=0,hash=eadfaaf153978d249ffe5c5ea64afa99}{%
           family={Breakey},
           familyi={B\bibinitperiod},
           given={Hugh},
           giveni={H\bibinitperiod}}}%
      }
      \list{publisher}{1}{%
        {[Modern Law Review, Wiley]}%
      }
      \strng{namehash}{eadfaaf153978d249ffe5c5ea64afa99}
      \strng{fullhash}{eadfaaf153978d249ffe5c5ea64afa99}
      \strng{authornamehash}{eadfaaf153978d249ffe5c5ea64afa99}
      \strng{authorfullhash}{eadfaaf153978d249ffe5c5ea64afa99}
      \field{sortinit}{B}
      \field{sortinithash}{4ecbea03efd0532989d3836d1a048c32}
      \field{labelnamesource}{author}
      \field{labeltitlesource}{title}
      \field{issn}{0026-7961}
      \field{journaltitle}{The Modern Law Review}
      \field{number}{2}
      \field{title}{Natural Intellectual Property Rights and the Public Domain}
      \field{volume}{73}
      \field{year}{2010}
      \field{pages}{208\bibrangedash 239}
      \range{pages}{32}
      \verb{file}
      \verb :recursos/breakey2010a.pdf:PDF
      \endverb
      \verb{url}
      \verb http://www.jstor.org/stable/40660697
      \endverb
      \keyw{Secundaria}
    \endentry
    \entry{child1990a}{article}{}
      \name{author}{1}{}{%
        {{uniquename=0,hash=cda1b50d713f9aaa312d66d2c373527c}{%
           family={Child},
           familyi={C\bibinitperiod},
           given={James\bibnamedelima W.},
           giveni={J\bibinitperiod\bibinitdelim W\bibinitperiod}}}%
      }
      \list{publisher}{1}{%
        {Oxford University Press}%
      }
      \strng{namehash}{cda1b50d713f9aaa312d66d2c373527c}
      \strng{fullhash}{cda1b50d713f9aaa312d66d2c373527c}
      \strng{authornamehash}{cda1b50d713f9aaa312d66d2c373527c}
      \strng{authorfullhash}{cda1b50d713f9aaa312d66d2c373527c}
      \field{sortinit}{C}
      \field{sortinithash}{59f25d509f3381b07695554a9f35ecb2}
      \field{labelnamesource}{author}
      \field{labeltitlesource}{title}
      \field{issn}{0026-9662}
      \field{journaltitle}{The Monist}
      \field{number}{4}
      \field{title}{The Moral Foundations of Intangible Property}
      \field{volume}{73}
      \field{year}{1990}
      \field{pages}{578\bibrangedash 600}
      \range{pages}{23}
      \verb{file}
      \verb :recursos/child1990a.pdf:PDF
      \endverb
      \verb{url}
      \verb http://www.jstor.org/stable/27903211
      \endverb
      \keyw{Primaria}
    \endentry
    \entry{sledu2013a}{online}{}
      \list{organization}{1}{%
        {SoftwareLibre}%
      }
      \field{sortinit}{C}
      \field{sortinithash}{59f25d509f3381b07695554a9f35ecb2}
      \field{labeltitlesource}{title}
      \field{title}{Comunicado de la comunidad sobre Ley de Software Libre y Formatos Abiertos en el Estado}
      \field{year}{2013}
      \verb{file}
      \verb :recursos/sledu2013a.htm:URL
      \endverb
      \verb{url}
      \verb https://www.softwarelibre.edu.uy/Comunicado+Ley+de+Software+Libre
      \endverb
      \keyw{Secundaria}
    \endentry
    \entry{contitucioneeuu1787a}{online}{}
      \field{sortinit}{C}
      \field{sortinithash}{59f25d509f3381b07695554a9f35ecb2}
      \field{labeltitlesource}{title}
      \field{title}{Constitución de los Estados Unidos}
      \field{year}{1787}
      \verb{file}
      \verb :recursos/contitucioneeuu1787a.htm:URL
      \endverb
      \verb{url}
      \verb https://es.wikisource.org/wiki/Constituci%C3%B3n_de_los_Estados_Unidos_de_Am%C3%A9rica#Octava_Secci.C3.B3n
      \endverb
      \keyw{Secundaria}
    \endentry
    \entry{derrida2002a}{inbook}{}
      \name{author}{1}{}{%
        {{uniquename=0,hash=242846d1ccb2b57cf3de51fc5c3411d5}{%
           family={Derrida},
           familyi={D\bibinitperiod},
           given={Jacques},
           giveni={J\bibinitperiod}}}%
      }
      \name{editor}{1}{}{%
        {{hash=ddc042b53fb860556342886512984200}{%
           family={Cohen},
           familyi={C\bibinitperiod},
           given={Tom},
           giveni={T\bibinitperiod}}}%
      }
      \list{publisher}{1}{%
        {Cambridge University Press}%
      }
      \strng{namehash}{242846d1ccb2b57cf3de51fc5c3411d5}
      \strng{fullhash}{242846d1ccb2b57cf3de51fc5c3411d5}
      \strng{authornamehash}{242846d1ccb2b57cf3de51fc5c3411d5}
      \strng{authorfullhash}{242846d1ccb2b57cf3de51fc5c3411d5}
      \strng{editornamehash}{ddc042b53fb860556342886512984200}
      \strng{editorfullhash}{ddc042b53fb860556342886512984200}
      \field{sortinit}{D}
      \field{sortinithash}{78f7c4753a2004675f316a80bdb31742}
      \field{labelnamesource}{author}
      \field{labeltitlesource}{title}
      \field{chapter}{The future of the profession or the university without condition (thanks to the “Humanities,” what could take place tomorrow)}
      \field{isbn}{978-0-52-162565-4}
      \field{title}{Jacques Derrida and the Humanities}
      \field{year}{2002}
      \field{pages}{24\bibrangedash 57}
      \range{pages}{34}
      \verb{file}
      \verb :recursos/derrida2002a.pdf:PDF
      \endverb
      \verb{url}
      \verb http://users.clas.ufl.edu/burt/derridafutureprofession.pdf
      \endverb
      \keyw{Primaria}
    \endentry
    \entry{htec1990a}{book}{}
      \name{author}{2}{}{%
        {{uniquename=0,hash=2170bbff72d70cce57379d3514daad93}{%
           family={Derry},
           familyi={D\bibinitperiod},
           given={T.K.},
           giveni={T\bibinitperiod}}}%
        {{uniquename=1,hash=8dd151d14402b2eacac96654cc1fd766}{%
           family={Williams},
           familyi={W\bibinitperiod},
           given={T.I.},
           giveni={T\bibinitperiod}}}%
      }
      \list{publisher}{1}{%
        {Siglo XXI}%
      }
      \strng{namehash}{b008ec971ab9a6f4bbabcfec930d12f3}
      \strng{fullhash}{b008ec971ab9a6f4bbabcfec930d12f3}
      \strng{authornamehash}{b008ec971ab9a6f4bbabcfec930d12f3}
      \strng{authorfullhash}{b008ec971ab9a6f4bbabcfec930d12f3}
      \field{sortinit}{D}
      \field{sortinithash}{78f7c4753a2004675f316a80bdb31742}
      \field{labelnamesource}{author}
      \field{labeltitlesource}{title}
      \field{isbn}{978-9-68-231657-9}
      \field{title}{Historia de la tecnología}
      \field{volume}{1}
      \field{year}{1990}
      \keyw{Secundaria}
    \endentry
    \entry{htec1991a}{book}{}
      \name{author}{2}{}{%
        {{uniquename=0,hash=2170bbff72d70cce57379d3514daad93}{%
           family={Derry},
           familyi={D\bibinitperiod},
           given={T.K.},
           giveni={T\bibinitperiod}}}%
        {{uniquename=1,hash=8dd151d14402b2eacac96654cc1fd766}{%
           family={Williams},
           familyi={W\bibinitperiod},
           given={T.I.},
           giveni={T\bibinitperiod}}}%
      }
      \list{publisher}{1}{%
        {Siglo XXI}%
      }
      \strng{namehash}{b008ec971ab9a6f4bbabcfec930d12f3}
      \strng{fullhash}{b008ec971ab9a6f4bbabcfec930d12f3}
      \strng{authornamehash}{b008ec971ab9a6f4bbabcfec930d12f3}
      \strng{authorfullhash}{b008ec971ab9a6f4bbabcfec930d12f3}
      \field{sortinit}{D}
      \field{sortinithash}{78f7c4753a2004675f316a80bdb31742}
      \field{labelnamesource}{author}
      \field{labeltitlesource}{title}
      \field{isbn}{978-9-68-231602-9}
      \field{title}{Historia de la tecnología}
      \field{volume}{2}
      \field{year}{1991}
      \keyw{Secundaria}
    \endentry
    \entry{htec1991b}{book}{}
      \name{author}{2}{}{%
        {{uniquename=0,hash=2170bbff72d70cce57379d3514daad93}{%
           family={Derry},
           familyi={D\bibinitperiod},
           given={T.K.},
           giveni={T\bibinitperiod}}}%
        {{uniquename=1,hash=8dd151d14402b2eacac96654cc1fd766}{%
           family={Williams},
           familyi={W\bibinitperiod},
           given={T.I.},
           giveni={T\bibinitperiod}}}%
      }
      \list{publisher}{1}{%
        {Siglo XXI}%
      }
      \strng{namehash}{b008ec971ab9a6f4bbabcfec930d12f3}
      \strng{fullhash}{b008ec971ab9a6f4bbabcfec930d12f3}
      \strng{authornamehash}{b008ec971ab9a6f4bbabcfec930d12f3}
      \strng{authorfullhash}{b008ec971ab9a6f4bbabcfec930d12f3}
      \field{sortinit}{D}
      \field{sortinithash}{78f7c4753a2004675f316a80bdb31742}
      \field{labelnamesource}{author}
      \field{labeltitlesource}{title}
      \field{isbn}{978-9-6823-1566-4}
      \field{title}{Historia de la tecnología}
      \field{volume}{3}
      \field{year}{1991}
      \keyw{Secundaria}
    \endentry
    \entry{eff2017a}{online}{}
      \name{author}{1}{}{%
        {{uniquename=0,hash=f07392ff66b0c83a1520683a348eabe1}{%
           family={Doctorow},
           familyi={D\bibinitperiod},
           given={Cory},
           giveni={C\bibinitperiod}}}%
      }
      \list{organization}{1}{%
        {Electronic Frontier Foundation}%
      }
      \strng{namehash}{f07392ff66b0c83a1520683a348eabe1}
      \strng{fullhash}{f07392ff66b0c83a1520683a348eabe1}
      \strng{authornamehash}{f07392ff66b0c83a1520683a348eabe1}
      \strng{authorfullhash}{f07392ff66b0c83a1520683a348eabe1}
      \field{sortinit}{D}
      \field{sortinithash}{78f7c4753a2004675f316a80bdb31742}
      \field{labelnamesource}{author}
      \field{labeltitlesource}{title}
      \field{title}{Save Netflix!}
      \field{year}{2016}
      \verb{file}
      \verb :recursos/eff2017a.htm:URL
      \endverb
      \verb{url}
      \verb https://www.eff.org/deeplinks/2016/04/save-netflix
      \endverb
      \keyw{Secundaria}
    \endentry
    \entry{drahos1996a}{book}{}
      \name{author}{1}{}{%
        {{uniquename=0,hash=27566f075a9be378731bb4218daa0706}{%
           family={Drahos},
           familyi={D\bibinitperiod},
           given={Peter},
           giveni={P\bibinitperiod}}}%
      }
      \list{publisher}{1}{%
        {Dartmouth Pub Co}%
      }
      \strng{namehash}{27566f075a9be378731bb4218daa0706}
      \strng{fullhash}{27566f075a9be378731bb4218daa0706}
      \strng{authornamehash}{27566f075a9be378731bb4218daa0706}
      \strng{authorfullhash}{27566f075a9be378731bb4218daa0706}
      \field{sortinit}{D}
      \field{sortinithash}{78f7c4753a2004675f316a80bdb31742}
      \field{labelnamesource}{author}
      \field{labeltitlesource}{title}
      \field{isbn}{978-1-85-521240-4}
      \field{title}{A Philosophy of Intellectual Property (Applied Legal Philosophy)}
      \field{year}{1996}
      \verb{file}
      \verb :recursos/drahos1996a.pdf:PDF
      \endverb
      \verb{url}
      \verb http://gen.lib.rus.ec/book/index.php?md5=A9102DE4142FED0E1E3ACD70BE069EBB
      \endverb
      \keyw{Primaria}
    \endentry
    \entry{eco2016a}{book}{}
      \name{author}{1}{}{%
        {{uniquename=0,hash=eeb9256075038567a106101346ca2995}{%
           family={Eco},
           familyi={E\bibinitperiod},
           given={Umberto},
           giveni={U\bibinitperiod}}}%
      }
      \name{editor}{1}{}{%
        {{hash=5a6178e6a2ddf47dd1fda12c912b6733}{%
           family={FLeCos},
           familyi={F\bibinitperiod}}}%
      }
      \list{publisher}{1}{%
        {epublibre}%
      }
      \strng{namehash}{eeb9256075038567a106101346ca2995}
      \strng{fullhash}{eeb9256075038567a106101346ca2995}
      \strng{authornamehash}{eeb9256075038567a106101346ca2995}
      \strng{authorfullhash}{eeb9256075038567a106101346ca2995}
      \strng{editornamehash}{5a6178e6a2ddf47dd1fda12c912b6733}
      \strng{editorfullhash}{5a6178e6a2ddf47dd1fda12c912b6733}
      \field{sortinit}{E}
      \field{sortinithash}{fefc5210ef4721525b2a478df41efcd4}
      \field{labelnamesource}{author}
      \field{labeltitlesource}{title}
      \field{title}{Obra abierta}
      \field{year}{2016}
      \verb{file}
      \verb :recursos/eco2016a.epub:ePUB
      \endverb
      \verb{url}
      \verb https://epublibre.org/libro/detalle/29988
      \endverb
      \keyw{Secundaria}
    \endentry
    \entry{fiormonte2017a}{online}{}
      \name{author}{2}{}{%
        {{uniquename=0,hash=8d252ecc982f9c6d0ed89c719b9c1e6e}{%
           family={Fiormonte},
           familyi={F\bibinitperiod},
           given={Domenico},
           giveni={D\bibinitperiod}}}%
        {{uniquename=0,hash=a4e38dbb0324f75356916691f99ae8ee}{%
           family={Priego},
           familyi={P\bibinitperiod},
           given={Ernesto},
           giveni={E\bibinitperiod}}}%
      }
      \list{organization}{1}{%
        {City University London}%
      }
      \strng{namehash}{c790d7a41c390a89c874a1fd9c8ea744}
      \strng{fullhash}{c790d7a41c390a89c874a1fd9c8ea744}
      \strng{authornamehash}{c790d7a41c390a89c874a1fd9c8ea744}
      \strng{authorfullhash}{c790d7a41c390a89c874a1fd9c8ea744}
      \field{sortinit}{F}
      \field{sortinithash}{c6a7d9913bbd7b20ea954441c0460b78}
      \field{labelnamesource}{author}
      \field{labeltitlesource}{title}
      \field{title}{Knowledge Monopolies and Global Academic Publishing}
      \verb{file}
      \verb :recursos/fiormonte2017a.pdf:PDF
      \endverb
      \verb{url}
      \verb http://openaccess.city.ac.uk/15230/8/4965-knowledge-monopolies-and-global-academic-publishing.pdf
      \endverb
      \keyw{Secundaria}
    \endentry
    \entry{fisher2016a}{inbook}{}
      \name{author}{1}{}{%
        {{uniquename=0,hash=cc0c818e8e7f87ea0615dc1800d7416e}{%
           family={Fisher},
           familyi={F\bibinitperiod},
           given={William},
           giveni={W\bibinitperiod}}}%
      }
      \list{publisher}{1}{%
        {Perro Triste}%
      }
      \strng{namehash}{cc0c818e8e7f87ea0615dc1800d7416e}
      \strng{fullhash}{cc0c818e8e7f87ea0615dc1800d7416e}
      \strng{authornamehash}{cc0c818e8e7f87ea0615dc1800d7416e}
      \strng{authorfullhash}{cc0c818e8e7f87ea0615dc1800d7416e}
      \field{sortinit}{F}
      \field{sortinithash}{c6a7d9913bbd7b20ea954441c0460b78}
      \field{labelnamesource}{author}
      \field{labeltitlesource}{title}
      \field{chapter}{Teorías de la propiedad intelectual}
      \field{isbn}{9786079718404}
      \field{title}{¿Propiedad intelectual? Una recopilación de ensayos críticos}
      \field{year}{2016}
      \verb{file}
      \verb Notas:recursos/fisher2016a.txt:Text;:recursos/varios-pi_pt.epub:ePUB
      \endverb
      \verb{url}
      \verb https://github.com/ColectivoPerroTriste/Ebooks/blob/master/Colecci%C3%B3n%20Delta/Libros/Propiedad%20intelectual/PropiedadIntelectual.epub
      \endverb
      \keyw{Primaria}
    \endentry
    \entry{foucault1999a}{booklet}{}
      \name{author}{1}{}{%
        {{uniquename=0,hash=984e5967448051538555a64aac11ed21}{%
           family={Foucault},
           familyi={F\bibinitperiod},
           given={Michel},
           giveni={M\bibinitperiod}}}%
      }
      \strng{namehash}{984e5967448051538555a64aac11ed21}
      \strng{fullhash}{984e5967448051538555a64aac11ed21}
      \strng{authornamehash}{984e5967448051538555a64aac11ed21}
      \strng{authorfullhash}{984e5967448051538555a64aac11ed21}
      \field{sortinit}{F}
      \field{sortinithash}{c6a7d9913bbd7b20ea954441c0460b78}
      \field{labelnamesource}{author}
      \field{labeltitlesource}{title}
      \field{title}{¿Qué es un autor?}
      \field{year}{1999}
      \verb{file}
      \verb Notas:recursos/foucault1999a.txt:Text;:recursos/foucault1999a.pdf:PDF
      \endverb
      \verb{url}
      \verb http://www.saber.ula.ve/bitstream/123456789/15927/1/davila-autor.pdf
      \endverb
      \keyw{Primaria}
    \endentry
    \entry{gilmore2004a}{inbook}{}
      \name{author}{1}{}{%
        {{uniquename=0,hash=c38ffbc7ed790014e408a7d9ffbe2065}{%
           family={Gilmore},
           familyi={G\bibinitperiod},
           given={John},
           giveni={J\bibinitperiod}}}%
      }
      \name{editor}{1}{}{%
        {{hash=f5d3941bed85dff5c193687659733c6d}{%
           family={Gradin},
           familyi={G\bibinitperiod},
           given={Carlos},
           giveni={C\bibinitperiod}}}%
      }
      \list{publisher}{1}{%
        {Editora Fantasma}%
      }
      \strng{namehash}{c38ffbc7ed790014e408a7d9ffbe2065}
      \strng{fullhash}{c38ffbc7ed790014e408a7d9ffbe2065}
      \strng{authornamehash}{c38ffbc7ed790014e408a7d9ffbe2065}
      \strng{authorfullhash}{c38ffbc7ed790014e408a7d9ffbe2065}
      \strng{editornamehash}{f5d3941bed85dff5c193687659733c6d}
      \strng{editorfullhash}{f5d3941bed85dff5c193687659733c6d}
      \field{sortinit}{G}
      \field{sortinithash}{1c854ef9177a91bf894e66485bdbd3ed}
      \field{labelnamesource}{author}
      \field{labeltitlesource}{title}
      \field{chapter}{Privacidad, tecnologia y sociedad abierta}
      \field{isbn}{9872180806}
      \field{title}{:(){ :|:\& };: Internet, hackers y software libre}
      \field{year}{2004}
      \verb{file}
      \verb :recursos/gilmore2004a.epub:ePUB
      \endverb
      \verb{url}
      \verb http://www.epubgratis.org/internet-hackers-y-software-libre-carlos-gradin/
      \endverb
      \keyw{Secundaria}
    \endentry
    \entry{gnu2017a}{online}{}
      \field{sortinit}{G}
      \field{sortinithash}{1c854ef9177a91bf894e66485bdbd3ed}
      \field{labeltitlesource}{title}
      \field{title}{GNU General Public License}
      \verb{file}
      \verb :recursos/gnu2017a.html:URL
      \endverb
      \verb{url}
      \verb https://www.gnu.org/licenses/gpl.html
      \endverb
      \keyw{Secundaria}
    \endentry
    \entry{hall2009a}{article}{}
      \name{author}{1}{}{%
        {{uniquename=0,hash=f5d650faecb6c6431a172cd0addd1d63}{%
           family={Hall},
           familyi={H\bibinitperiod},
           given={Gary},
           giveni={G\bibinitperiod}}}%
      }
      \strng{namehash}{f5d650faecb6c6431a172cd0addd1d63}
      \strng{fullhash}{f5d650faecb6c6431a172cd0addd1d63}
      \strng{authornamehash}{f5d650faecb6c6431a172cd0addd1d63}
      \strng{authorfullhash}{f5d650faecb6c6431a172cd0addd1d63}
      \field{sortinit}{H}
      \field{sortinithash}{82012198d5dfa657b8c4a168793268a6}
      \field{labelnamesource}{author}
      \field{labeltitlesource}{title}
      \field{issn}{1465-4121}
      \field{journaltitle}{Culture Machine}
      \field{title}{Introduction: Pirate Philosophy}
      \field{volume}{10}
      \field{year}{2009}
      \field{pages}{1\bibrangedash 5}
      \range{pages}{5}
      \verb{file}
      \verb :recursos/hall2009a.pdf:PDF
      \endverb
      \verb{url}
      \verb http://www.culturemachine.net/index.php/cm/issue/view/21
      \endverb
      \keyw{Primaria}
    \endentry
    \entry{hall2016a}{book}{}
      \name{author}{1}{}{%
        {{uniquename=0,hash=f5d650faecb6c6431a172cd0addd1d63}{%
           family={Hall},
           familyi={H\bibinitperiod},
           given={Gary},
           giveni={G\bibinitperiod}}}%
      }
      \list{publisher}{1}{%
        {MIT Press}%
      }
      \strng{namehash}{f5d650faecb6c6431a172cd0addd1d63}
      \strng{fullhash}{f5d650faecb6c6431a172cd0addd1d63}
      \strng{authornamehash}{f5d650faecb6c6431a172cd0addd1d63}
      \strng{authorfullhash}{f5d650faecb6c6431a172cd0addd1d63}
      \field{sortinit}{H}
      \field{sortinithash}{82012198d5dfa657b8c4a168793268a6}
      \field{labelnamesource}{author}
      \field{labeltitlesource}{title}
      \field{isbn}{9780262034401}
      \field{title}{Pirate Philosophy: For a Digital Posthumanities}
      \field{year}{2016}
      \verb{file}
      \verb :recursos/hall2016a.pdf:PDF
      \endverb
      \verb{url}
      \verb https://es.scribd.com/document/317868896/Pirate-Philosophy-For-a-Digital-Posthumanities#
      \endverb
      \keyw{Primaria}
    \endentry
    \entry{hall2009b}{article}{}
      \name{author}{1}{}{%
        {{uniquename=0,hash=f5d650faecb6c6431a172cd0addd1d63}{%
           family={Hall},
           familyi={H\bibinitperiod},
           given={Gary},
           giveni={G\bibinitperiod}}}%
      }
      \strng{namehash}{f5d650faecb6c6431a172cd0addd1d63}
      \strng{fullhash}{f5d650faecb6c6431a172cd0addd1d63}
      \strng{authornamehash}{f5d650faecb6c6431a172cd0addd1d63}
      \strng{authorfullhash}{f5d650faecb6c6431a172cd0addd1d63}
      \field{sortinit}{H}
      \field{sortinithash}{82012198d5dfa657b8c4a168793268a6}
      \field{labelnamesource}{author}
      \field{labeltitlesource}{title}
      \field{journaltitle}{Culture Machine}
      \field{title}{Pirate Philosophy (Version 1.0): Open Access, Open Editing, Free Content, Free/Libre/Open Media}
      \field{volume}{10}
      \field{year}{2009}
      \verb{file}
      \verb :recursos/hall2009b.pdf:PDF
      \endverb
      \verb{url}
      \verb http://aaaaarg.fail/thing/51c584176c3a0ed90bac0700
      \endverb
      \keyw{Primaria}
    \endentry
    \entry{hall2012a}{article}{}
      \name{author}{1}{}{%
        {{uniquename=0,hash=f5d650faecb6c6431a172cd0addd1d63}{%
           family={Hall},
           familyi={H\bibinitperiod},
           given={Gary},
           giveni={G\bibinitperiod}}}%
      }
      \strng{namehash}{f5d650faecb6c6431a172cd0addd1d63}
      \strng{fullhash}{f5d650faecb6c6431a172cd0addd1d63}
      \strng{authornamehash}{f5d650faecb6c6431a172cd0addd1d63}
      \strng{authorfullhash}{f5d650faecb6c6431a172cd0addd1d63}
      \field{sortinit}{H}
      \field{sortinithash}{82012198d5dfa657b8c4a168793268a6}
      \field{labelnamesource}{author}
      \field{labeltitlesource}{title}
      \field{journaltitle}{Radical Philosophy}
      \field{number}{173}
      \field{title}{Pirate Radical Philosophy}
      \field{year}{2012}
      \field{pages}{33\bibrangedash 40}
      \range{pages}{8}
      \verb{file}
      \verb :recursos/hall2012a.pdf:PDF
      \endverb
      \verb{url}
      \verb https://www.academia.edu/11929908/Pirate_Radical_Philosophy
      \endverb
      \keyw{Primaria}
    \endentry
    \entry{hall2016b}{article}{}
      \name{author}{2}{}{%
        {{uniquename=0,hash=f5d650faecb6c6431a172cd0addd1d63}{%
           family={Hall},
           familyi={H\bibinitperiod},
           given={Gary},
           giveni={G\bibinitperiod}}}%
        {{uniquename=0,hash=ba67a659ee6da42be26a4726ef09a9c5}{%
           family={Adema},
           familyi={A\bibinitperiod},
           given={J.},
           giveni={J\bibinitperiod}}}%
      }
      \strng{namehash}{abedf4ff64cde56737a3d1ebd1d588ce}
      \strng{fullhash}{abedf4ff64cde56737a3d1ebd1d588ce}
      \strng{authornamehash}{abedf4ff64cde56737a3d1ebd1d588ce}
      \strng{authorfullhash}{abedf4ff64cde56737a3d1ebd1d588ce}
      \field{sortinit}{H}
      \field{sortinithash}{82012198d5dfa657b8c4a168793268a6}
      \field{labelnamesource}{author}
      \field{labeltitlesource}{title}
      \field{journaltitle}{Journal of Electronic Publishing}
      \field{number}{2}
      \field{title}{Posthumanities: The Dark Side of "The Dark Side of the Digital"}
      \field{volume}{19}
      \field{year}{2016}
      \verb{file}
      \verb :recursos/hall2016b.pdf:PDF
      \endverb
      \verb{url}
      \verb https://curve.coventry.ac.uk/open/file/71be4277-6fd3-40b4-a704-a8bee58efdfe/1/halldisruptcomb.pdf
      \endverb
      \keyw{Primaria}
    \endentry
    \entry{hegel2005a}{inbook}{}
      \name{author}{1}{}{%
        {{uniquename=0,hash=df20d631cfca357920e74d40cf5085e7}{%
           family={Hegel},
           familyi={H\bibinitperiod},
           given={Georg\bibnamedelimb Wilhelm\bibnamedelima Friedrich},
           giveni={G\bibinitperiod\bibinitdelim W\bibinitperiod\bibinitdelim F\bibinitperiod}}}%
      }
      \list{publisher}{1}{%
        {Editora y Distribuidora Hispano Americana, S.A. (EDHASA)}%
      }
      \strng{namehash}{df20d631cfca357920e74d40cf5085e7}
      \strng{fullhash}{df20d631cfca357920e74d40cf5085e7}
      \strng{authornamehash}{df20d631cfca357920e74d40cf5085e7}
      \strng{authorfullhash}{df20d631cfca357920e74d40cf5085e7}
      \field{sortinit}{H}
      \field{sortinithash}{82012198d5dfa657b8c4a168793268a6}
      \field{labelnamesource}{author}
      \field{labeltitlesource}{title}
      \field{chapter}{La propiedad}
      \field{day}{11}
      \field{isbn}{843502704X}
      \field{month}{5}
      \field{pagetotal}{512}
      \field{title}{Principios de la filosofía del derecho}
      \field{year}{2005}
      \field{dateera}{ce}
      \field{pages}{125\bibrangedash 160}
      \range{pages}{36}
      \verb{file}
      \verb :recursos/hegel2005a.pdf:PDF
      \endverb
      \verb{url}
      \verb https://docs.google.com/viewer?a=v&pid=sites&srcid=ZGVmYXVsdGRvbWFpbnxlc3RldGljYXBvbGl0aWNhMjAxNHxneDo0MjUwYjg2MzUwZGY2ZDk1
      \endverb
      \keyw{Primaria}
    \endentry
    \entry{heidegger1994a}{inbook}{}
      \name{author}{1}{}{%
        {{uniquename=0,hash=79b1e6f4199aeb3f853ca7cba607bfdc}{%
           family={Heidegger},
           familyi={H\bibinitperiod},
           given={Martin},
           giveni={M\bibinitperiod}}}%
      }
      \list{publisher}{1}{%
        {Ediciones del Serbal}%
      }
      \strng{namehash}{79b1e6f4199aeb3f853ca7cba607bfdc}
      \strng{fullhash}{79b1e6f4199aeb3f853ca7cba607bfdc}
      \strng{authornamehash}{79b1e6f4199aeb3f853ca7cba607bfdc}
      \strng{authorfullhash}{79b1e6f4199aeb3f853ca7cba607bfdc}
      \field{sortinit}{H}
      \field{sortinithash}{82012198d5dfa657b8c4a168793268a6}
      \field{labelnamesource}{author}
      \field{labeltitlesource}{title}
      \field{chapter}{La pregunta por la técnica}
      \field{title}{Conferencias y artículos}
      \field{year}{1994}
      \field{pages}{9\bibrangedash 37}
      \range{pages}{29}
      \verb{file}
      \verb :recursos/heidegger1994a.pdf:PDF
      \endverb
      \verb{url}
      \verb http://www.bolivare.unam.mx/cursos/TextosCurso10-1/HEIDEGGER-%20LA%20PREGUNTA%20POR%20LA%20T%C9CNICA.pdf
      \endverb
      \keyw{Primaria}
    \endentry
    \entry{hettinger1989a}{article}{}
      \name{author}{1}{}{%
        {{uniquename=0,hash=31681824ea5d40e086e9fceedf7da66f}{%
           family={Hettinger},
           familyi={H\bibinitperiod},
           given={Edwin\bibnamedelima C.},
           giveni={E\bibinitperiod\bibinitdelim C\bibinitperiod}}}%
      }
      \list{publisher}{1}{%
        {Wiley}%
      }
      \strng{namehash}{31681824ea5d40e086e9fceedf7da66f}
      \strng{fullhash}{31681824ea5d40e086e9fceedf7da66f}
      \strng{authornamehash}{31681824ea5d40e086e9fceedf7da66f}
      \strng{authorfullhash}{31681824ea5d40e086e9fceedf7da66f}
      \field{sortinit}{H}
      \field{sortinithash}{82012198d5dfa657b8c4a168793268a6}
      \field{labelnamesource}{author}
      \field{labeltitlesource}{title}
      \field{issn}{0048-3915}
      \field{journaltitle}{Philosophy \& Public Affairs}
      \field{number}{1}
      \field{title}{Justifying Intellectual Property}
      \field{volume}{18}
      \field{year}{1989}
      \field{pages}{31\bibrangedash 52}
      \range{pages}{22}
      \verb{file}
      \verb :recursos/hettinger1989a.pdf:PDF
      \endverb
      \verb{url}
      \verb http://www.jstor.org/stable/2265190
      \endverb
      \keyw{Secundaria}
    \endentry
    \entry{himma2006a}{inbook}{}
      \name{author}{1}{}{%
        {{uniquename=1,hash=9c3536ef992c5b2c420164174a464806}{%
           family={Himma},
           familyi={H\bibinitperiod},
           given={Kenneth\bibnamedelima Einar},
           giveni={K\bibinitperiod\bibinitdelim E\bibinitperiod}}}%
      }
      \name{editor}{1}{}{%
        {{hash=640fbef5e6091ae6b037dce06776a3d0}{%
           family={Rooksby},
           familyi={R\bibinitperiod},
           given={Emma},
           giveni={E\bibinitperiod}}}%
      }
      \list{publisher}{1}{%
        {Idea Group}%
      }
      \strng{namehash}{9c3536ef992c5b2c420164174a464806}
      \strng{fullhash}{9c3536ef992c5b2c420164174a464806}
      \strng{authornamehash}{9c3536ef992c5b2c420164174a464806}
      \strng{authorfullhash}{9c3536ef992c5b2c420164174a464806}
      \strng{editornamehash}{640fbef5e6091ae6b037dce06776a3d0}
      \strng{editorfullhash}{640fbef5e6091ae6b037dce06776a3d0}
      \field{sortinit}{H}
      \field{sortinithash}{82012198d5dfa657b8c4a168793268a6}
      \field{labelnamesource}{author}
      \field{labeltitlesource}{title}
      \field{chapter}{Justifying Intellectual Property Protection: Why the Interests of Content-Creators Usually Wins Over Everyone Else’s}
      \field{title}{Information, Technology and Social Justice}
      \field{year}{2006}
      \verb{file}
      \verb :recursos/himma2006a.pdf:PDF
      \endverb
      \verb{url}
      \verb https://papers.ssrn.com/sol3/papers.cfm?abstract_id=840584
      \endverb
      \keyw{Secundaria}
    \endentry
    \entry{hughes1988a}{article}{}
      \name{author}{1}{}{%
        {{uniquename=0,hash=e9d71313e709f015a118fc6afc9ecc4e}{%
           family={Hughes},
           familyi={H\bibinitperiod},
           given={Justin},
           giveni={J\bibinitperiod}}}%
      }
      \strng{namehash}{e9d71313e709f015a118fc6afc9ecc4e}
      \strng{fullhash}{e9d71313e709f015a118fc6afc9ecc4e}
      \strng{authornamehash}{e9d71313e709f015a118fc6afc9ecc4e}
      \strng{authorfullhash}{e9d71313e709f015a118fc6afc9ecc4e}
      \field{sortinit}{H}
      \field{sortinithash}{82012198d5dfa657b8c4a168793268a6}
      \field{labelnamesource}{author}
      \field{labeltitlesource}{title}
      \field{journaltitle}{Georgetown Law Journal}
      \field{title}{The Philosophy of Intellectual Property}
      \field{year}{1988}
      \verb{file}
      \verb Notas:recursos/hughes1988a.txt:Text;:recursos/hughes1988a.pdf:PDF
      \endverb
      \verb{url}
      \verb http://www.justinhughes.net/docs/a-ip01.pdf
      \endverb
      \keyw{Primaria}
    \endentry
    \entry{illich1985a}{book}{}
      \name{author}{1}{}{%
        {{uniquename=0,hash=2b44d9080e94b292582da35ff0283b8a}{%
           family={Illich},
           familyi={I\bibinitperiod},
           given={Iván},
           giveni={I\bibinitperiod}}}%
      }
      \list{publisher}{1}{%
        {Joaquín Mortiz — Planeta}%
      }
      \strng{namehash}{2b44d9080e94b292582da35ff0283b8a}
      \strng{fullhash}{2b44d9080e94b292582da35ff0283b8a}
      \strng{authornamehash}{2b44d9080e94b292582da35ff0283b8a}
      \strng{authorfullhash}{2b44d9080e94b292582da35ff0283b8a}
      \field{sortinit}{I}
      \field{sortinithash}{25e99d37ba90f7c4fb20baf4e310faf3}
      \field{labelnamesource}{author}
      \field{labeltitlesource}{title}
      \field{isbn}{9682704901}
      \field{title}{La sociedad desescolarizada}
      \field{year}{1985}
      \verb{file}
      \verb :recursos/illich1985a.epub:ePUB
      \endverb
      \verb{url}
      \verb http://libgen.io/book/index.php?md5=125D0ACA844D2B5BFE6F43867C090376
      \endverb
      \keyw{Primaria}
    \endentry
    \entry{jimenez2008a}{inbook}{}
      \name{author}{1}{}{%
        {{uniquename=0,hash=9d697fc43f962be1f33c8b0748419c04}{%
           family={Jiménez},
           familyi={J\bibinitperiod},
           given={Lucina},
           giveni={L\bibinitperiod}}}%
      }
      \name{editor}{2}{}{%
        {{hash=e58695bc8d178b9cc8a87d3e80508a84}{%
           family={López},
           familyi={L\bibinitperiod},
           given={Albert},
           giveni={A\bibinitperiod}}}%
        {{hash=76ad83196464f4f833da97a57490b9d5}{%
           family={Ramírez},
           familyi={R\bibinitperiod},
           given={Eduardo},
           giveni={E\bibinitperiod}}}%
      }
      \list{publisher}{1}{%
        {Centro Cultural de España en México — Universidad de las Américas Puebla}%
      }
      \strng{namehash}{9d697fc43f962be1f33c8b0748419c04}
      \strng{fullhash}{9d697fc43f962be1f33c8b0748419c04}
      \strng{authornamehash}{9d697fc43f962be1f33c8b0748419c04}
      \strng{authorfullhash}{9d697fc43f962be1f33c8b0748419c04}
      \strng{editornamehash}{a1c70f3ab9b94a9da20ddf3ad0b100fe}
      \strng{editorfullhash}{a1c70f3ab9b94a9da20ddf3ad0b100fe}
      \field{sortinit}{J}
      \field{sortinithash}{ec3950a647c092421b9fcca6d819504a}
      \field{labelnamesource}{author}
      \field{labeltitlesource}{title}
      \field{chapter}{Escuela, arte y nuevas tecnologías}
      \field{title}{Propiedad intelectual, nuevas tecnologías y libre acceso a la cultura}
      \field{year}{2008}
      \verb{file}
      \verb :recursos/varios-pi_nt_lia.pdf:PDF
      \endverb
      \verb{url}
      \verb https://www.academia.edu/2057461/Propiedad_intelectual_nuevas_tecnolog%C3%ADas_y_libre_acceso_a_la_cultura_-_Alberto_L%C3%B3pez_Cuenca_Eduardo_Ram%C3%ADrez_Pedrajo_coordinadores_
      \endverb
      \keyw{Secundaria}
    \endentry
    \entry{kant2005a}{book}{}
      \name{author}{1}{}{%
        {{uniquename=0,hash=e1e09a59acd7633f469747be85d5edc0}{%
           family={Kant},
           familyi={K\bibinitperiod},
           given={Immanuel},
           giveni={I\bibinitperiod}}}%
      }
      \list{publisher}{1}{%
        {Editorial Tecnos}%
      }
      \strng{namehash}{e1e09a59acd7633f469747be85d5edc0}
      \strng{fullhash}{e1e09a59acd7633f469747be85d5edc0}
      \strng{authornamehash}{e1e09a59acd7633f469747be85d5edc0}
      \strng{authorfullhash}{e1e09a59acd7633f469747be85d5edc0}
      \field{sortinit}{K}
      \field{sortinithash}{a7d5b3aec5a0890aae7baf85a209abfc}
      \field{labelnamesource}{author}
      \field{labeltitlesource}{title}
      \field{day}{11}
      \field{isbn}{9788430943425}
      \field{month}{9}
      \field{pagetotal}{472}
      \field{title}{La metafísica de las costumbres}
      \field{year}{2005}
      \field{dateera}{ce}
      \verb{file}
      \verb :recursos/kant2005a.pdf:PDF
      \endverb
      \verb{url}
      \verb https://es.scribd.com/doc/219559856/Kant-La-Metafisica-de-Las-Costumbres
      \endverb
      \keyw{Primaria}
    \endentry
    \entry{kuflik1989a}{inbook}{}
      \name{author}{1}{}{%
        {{uniquename=0,hash=ef4d393bda28da8d6694eb9f75e9d499}{%
           family={Kuflik},
           familyi={K\bibinitperiod},
           given={Arthur},
           giveni={A\bibinitperiod}}}%
      }
      \name{editor}{2}{}{%
        {{hash=12042eb0149c664bc2e9a877d54c505f}{%
           family={Weil},
           familyi={W\bibinitperiod},
           given={V.},
           giveni={V\bibinitperiod}}}%
        {{hash=dd8eb14d042c82b65fe8f24d7b52f33a}{%
           family={Snapper},
           familyi={S\bibinitperiod},
           given={J.},
           giveni={J\bibinitperiod}}}%
      }
      \list{publisher}{1}{%
        {Rutgers University Press}%
      }
      \strng{namehash}{ef4d393bda28da8d6694eb9f75e9d499}
      \strng{fullhash}{ef4d393bda28da8d6694eb9f75e9d499}
      \strng{authornamehash}{ef4d393bda28da8d6694eb9f75e9d499}
      \strng{authorfullhash}{ef4d393bda28da8d6694eb9f75e9d499}
      \strng{editornamehash}{969f72d00f2247306331631115f73fba}
      \strng{editorfullhash}{969f72d00f2247306331631115f73fba}
      \field{sortinit}{K}
      \field{sortinithash}{a7d5b3aec5a0890aae7baf85a209abfc}
      \field{labelnamesource}{author}
      \field{labeltitlesource}{title}
      \field{chapter}{The Moral Foundations of Intellectual Property Rights}
      \field{title}{Owning Scientific and Technical Information}
      \field{year}{1989}
      \verb{file}
      \verb :recursos/kuflik1989a.doc:Word
      \endverb
      \verb{url}
      \verb http://storm.cis.fordham.edu/~cschweikert/csrv4650/ch3MoralFoundations.doc
      \endverb
      \keyw{Primaria}
    \endentry
    \entry{lessig2011a}{book}{}
      \name{author}{1}{}{%
        {{uniquename=0,hash=b927f6177442a683e2822507be56dbd8}{%
           family={Lessig},
           familyi={L\bibinitperiod},
           given={Lawrence},
           giveni={L\bibinitperiod}}}%
      }
      \list{publisher}{1}{%
        {LOM Ediciones}%
      }
      \strng{namehash}{b927f6177442a683e2822507be56dbd8}
      \strng{fullhash}{b927f6177442a683e2822507be56dbd8}
      \strng{authornamehash}{b927f6177442a683e2822507be56dbd8}
      \strng{authorfullhash}{b927f6177442a683e2822507be56dbd8}
      \field{sortinit}{L}
      \field{sortinithash}{872351f18d0f736066eda0bf18bfa4f7}
      \field{labelnamesource}{author}
      \field{labeltitlesource}{title}
      \field{isbn}{9562827453}
      \field{title}{Cultura libre}
      \field{year}{2011}
      \verb{file}
      \verb :recursos/lessig2011a.pdf:PDF
      \endverb
      \verb{url}
      \verb https://derechosdigitales.org/culturalibre/
      \endverb
      \keyw{Primaria}
    \endentry
    \entry{lessig2009a}{book}{}
      \name{author}{1}{}{%
        {{uniquename=0,hash=b927f6177442a683e2822507be56dbd8}{%
           family={Lessig},
           familyi={L\bibinitperiod},
           given={Lawrence},
           giveni={L\bibinitperiod}}}%
      }
      \name{editor}{1}{}{%
        {{hash=ed135bcae17f3ff41322714048c41cec}{%
           family={Cabello},
           familyi={C\bibinitperiod},
           given={Florencio},
           giveni={F\bibinitperiod}}}%
      }
      \list{publisher}{1}{%
        {Traficantes de Sueños}%
      }
      \strng{namehash}{b927f6177442a683e2822507be56dbd8}
      \strng{fullhash}{b927f6177442a683e2822507be56dbd8}
      \strng{authornamehash}{b927f6177442a683e2822507be56dbd8}
      \strng{authorfullhash}{b927f6177442a683e2822507be56dbd8}
      \strng{editornamehash}{ed135bcae17f3ff41322714048c41cec}
      \strng{editorfullhash}{ed135bcae17f3ff41322714048c41cec}
      \field{sortinit}{L}
      \field{sortinithash}{872351f18d0f736066eda0bf18bfa4f7}
      \field{labelnamesource}{author}
      \field{labeltitlesource}{title}
      \field{day}{11}
      \field{isbn}{9788496453388}
      \field{month}{5}
      \field{pagetotal}{563}
      \field{title}{El código 2.0}
      \field{year}{2009}
      \field{dateera}{ce}
      \verb{file}
      \verb :recursos/lessig2009a.pdf:PDF
      \endverb
      \verb{url}
      \verb https://www.traficantes.net/libros/el-codigo-20
      \endverb
      \keyw{Secundaria}
    \endentry
    \entry{lessig2012a}{book}{}
      \name{author}{1}{}{%
        {{uniquename=0,hash=b927f6177442a683e2822507be56dbd8}{%
           family={Lessig},
           familyi={L\bibinitperiod},
           given={Lawrence},
           giveni={L\bibinitperiod}}}%
      }
      \list{publisher}{1}{%
        {Icaria editorial}%
      }
      \strng{namehash}{b927f6177442a683e2822507be56dbd8}
      \strng{fullhash}{b927f6177442a683e2822507be56dbd8}
      \strng{authornamehash}{b927f6177442a683e2822507be56dbd8}
      \strng{authorfullhash}{b927f6177442a683e2822507be56dbd8}
      \field{sortinit}{L}
      \field{sortinithash}{872351f18d0f736066eda0bf18bfa4f7}
      \field{labelnamesource}{author}
      \field{labeltitlesource}{title}
      \field{day}{11}
      \field{isbn}{9788498884548}
      \field{month}{10}
      \field{pagetotal}{368}
      \field{title}{Remix : cultura de la remezcla y derechos de autor en el entorno digital}
      \field{year}{2012}
      \field{dateera}{ce}
      \verb{file}
      \verb :recursos/lessig2012a.pdf:PDF
      \endverb
      \verb{url}
      \verb http://icariaeditorial.com/pdf_libros/REMIX.pdf
      \endverb
      \keyw{Secundaria}
    \endentry
    \entry{lessig2001a}{book}{}
      \name{author}{1}{}{%
        {{uniquename=0,hash=b927f6177442a683e2822507be56dbd8}{%
           family={Lessig},
           familyi={L\bibinitperiod},
           given={Lawrence},
           giveni={L\bibinitperiod}}}%
      }
      \list{publisher}{1}{%
        {Random House}%
      }
      \strng{namehash}{b927f6177442a683e2822507be56dbd8}
      \strng{fullhash}{b927f6177442a683e2822507be56dbd8}
      \strng{authornamehash}{b927f6177442a683e2822507be56dbd8}
      \strng{authorfullhash}{b927f6177442a683e2822507be56dbd8}
      \field{sortinit}{L}
      \field{sortinithash}{872351f18d0f736066eda0bf18bfa4f7}
      \field{labelnamesource}{author}
      \field{labeltitlesource}{title}
      \field{isbn}{0375505784}
      \field{title}{The Future of Ideas: The Fate of the Commons in a Connected World}
      \field{year}{2001}
      \verb{file}
      \verb :recursos/lessig2001a.pdf:PDF
      \endverb
      \verb{url}
      \verb http://the-future-of-ideas.com/
      \endverb
      \keyw{Secundaria}
    \endentry
    \entry{lever2012a}{book}{}
      \name{author}{1}{}{%
        {{uniquename=0,hash=10ad720ede4448e5c8bcedcdbea578ff}{%
           family={Lever},
           familyi={L\bibinitperiod},
           given={Annabelle},
           giveni={A\bibinitperiod}}}%
      }
      \list{publisher}{1}{%
        {Cambridge University Press}%
      }
      \strng{namehash}{10ad720ede4448e5c8bcedcdbea578ff}
      \strng{fullhash}{10ad720ede4448e5c8bcedcdbea578ff}
      \strng{authornamehash}{10ad720ede4448e5c8bcedcdbea578ff}
      \strng{authorfullhash}{10ad720ede4448e5c8bcedcdbea578ff}
      \field{sortinit}{L}
      \field{sortinithash}{872351f18d0f736066eda0bf18bfa4f7}
      \field{labelnamesource}{author}
      \field{labeltitlesource}{title}
      \field{isbn}{978-1-13-952587-9}
      \field{series}{Cambridge Intellectual Property and Information Law}
      \field{title}{New Frontiers in the Philosophy of Intellectual Property}
      \field{year}{2012}
      \verb{file}
      \verb :recursos/lever2012a.pdf:PDF
      \endverb
      \verb{url}
      \verb http://gen.lib.rus.ec/book/index.php?md5=94c9b1e4c70c84d18fd3e33cdaf52e0c
      \endverb
      \keyw{Primaria}
    \endentry
    \entry{levy2016a}{inbook}{}
      \name{author}{1}{}{%
        {{uniquename=0,hash=10a3515e2b0093e4090787aaafc5f98c}{%
           family={Lévy},
           familyi={L\bibinitperiod},
           given={Pierre},
           giveni={P\bibinitperiod}}}%
      }
      \list{publisher}{1}{%
        {Perro Triste}%
      }
      \strng{namehash}{10a3515e2b0093e4090787aaafc5f98c}
      \strng{fullhash}{10a3515e2b0093e4090787aaafc5f98c}
      \strng{authornamehash}{10a3515e2b0093e4090787aaafc5f98c}
      \strng{authorfullhash}{10a3515e2b0093e4090787aaafc5f98c}
      \field{sortinit}{L}
      \field{sortinithash}{872351f18d0f736066eda0bf18bfa4f7}
      \field{labelnamesource}{author}
      \field{labeltitlesource}{title}
      \field{chapter}{El anillo de oro}
      \field{isbn}{9786079718404}
      \field{title}{¿Propiedad intelectual? Una recopilación de ensayos críticos}
      \field{year}{2016}
      \verb{file}
      \verb :recursos/varios-pi_pt.epub:ePUB
      \endverb
      \verb{url}
      \verb https://github.com/ColectivoPerroTriste/Ebooks/blob/master/Colecci%C3%B3n%20Delta/Libros/Propiedad%20intelectual/PropiedadIntelectual.epub
      \endverb
      \keyw{Secundaria}
    \endentry
    \entry{publimetro2017a}{online}{}
      \field{sortinit}{L}
      \field{sortinithash}{872351f18d0f736066eda0bf18bfa4f7}
      \field{labeltitlesource}{title}
      \field{title}{“Ley Döring”, la “Ley SOPA” a la mexicana}
      \verb{file}
      \verb :recursos/publimetro2017a.html:URL
      \endverb
      \verb{url}
      \verb https://www.publimetro.com.mx/mx/noticias/2012/01/18/ley-doring-ley-sopa-mexicana.html
      \endverb
      \keyw{Secundaria}
    \endentry
    \entry{locke2006a}{inbook}{}
      \name{author}{1}{}{%
        {{uniquename=0,hash=b850f7e9b02245eddd11b3a5d656a240}{%
           family={Locke},
           familyi={L\bibinitperiod},
           given={John},
           giveni={J\bibinitperiod}}}%
      }
      \name{editor}{1}{}{%
        {{hash=6e36b44434699879f2523084b2b1f6a6}{%
           family={Mellizo},
           familyi={M\bibinitperiod},
           given={Carlos},
           giveni={C\bibinitperiod}}}%
      }
      \list{publisher}{1}{%
        {Tecnos}%
      }
      \strng{namehash}{b850f7e9b02245eddd11b3a5d656a240}
      \strng{fullhash}{b850f7e9b02245eddd11b3a5d656a240}
      \strng{authornamehash}{b850f7e9b02245eddd11b3a5d656a240}
      \strng{authorfullhash}{b850f7e9b02245eddd11b3a5d656a240}
      \strng{editornamehash}{6e36b44434699879f2523084b2b1f6a6}
      \strng{editorfullhash}{6e36b44434699879f2523084b2b1f6a6}
      \field{sortinit}{L}
      \field{sortinithash}{872351f18d0f736066eda0bf18bfa4f7}
      \field{labelnamesource}{author}
      \field{labeltitlesource}{title}
      \field{chapter}{De la propiedad}
      \field{isbn}{9788430944354}
      \field{title}{Segundo Tratado sobre el Gobierno Civil}
      \field{year}{2006}
      \field{pages}{32\bibrangedash 55}
      \range{pages}{24}
      \verb{file}
      \verb :recursos/locke2006a.pdf:PDF
      \endverb
      \verb{url}
      \verb https://dairoorozco.files.wordpress.com/2013/01/locke-segundo-tratado-sobre-el-gobierno-civil.pdf
      \endverb
      \keyw{Primaria}
    \endentry
    \entry{lopez2008a}{inbook}{}
      \name{author}{2}{}{%
        {{uniquename=0,hash=e82e84bd372de97293de73d3cbef971f}{%
           family={López},
           familyi={L\bibinitperiod},
           given={Alberto},
           giveni={A\bibinitperiod}}}%
        {{uniquename=0,hash=76ad83196464f4f833da97a57490b9d5}{%
           family={Ramírez},
           familyi={R\bibinitperiod},
           given={Eduardo},
           giveni={E\bibinitperiod}}}%
      }
      \name{editor}{2}{}{%
        {{hash=e58695bc8d178b9cc8a87d3e80508a84}{%
           family={López},
           familyi={L\bibinitperiod},
           given={Albert},
           giveni={A\bibinitperiod}}}%
        {{hash=76ad83196464f4f833da97a57490b9d5}{%
           family={Ramírez},
           familyi={R\bibinitperiod},
           given={Eduardo},
           giveni={E\bibinitperiod}}}%
      }
      \list{publisher}{1}{%
        {Centro Cultural de España en México — Universidad de las Américas Puebla}%
      }
      \strng{namehash}{6dfa2285f0bb3cb0a2027817447af31c}
      \strng{fullhash}{6dfa2285f0bb3cb0a2027817447af31c}
      \strng{authornamehash}{6dfa2285f0bb3cb0a2027817447af31c}
      \strng{authorfullhash}{6dfa2285f0bb3cb0a2027817447af31c}
      \strng{editornamehash}{a1c70f3ab9b94a9da20ddf3ad0b100fe}
      \strng{editorfullhash}{a1c70f3ab9b94a9da20ddf3ad0b100fe}
      \field{sortinit}{L}
      \field{sortinithash}{872351f18d0f736066eda0bf18bfa4f7}
      \field{labelnamesource}{author}
      \field{labeltitlesource}{title}
      \field{chapter}{Los derechos de autor en la era del capitalismo cultural}
      \field{title}{Propiedad intelectual, nuevas tecnologías y libre acceso a la cultura}
      \field{year}{2008}
      \verb{file}
      \verb :recursos/lopez2008a.pdf:PDF
      \endverb
      \verb{url}
      \verb https://www.academia.edu/2057461/Propiedad_intelectual_nuevas_tecnolog%C3%ADas_y_libre_acceso_a_la_cultura_-_Alberto_L%C3%B3pez_Cuenca_Eduardo_Ram%C3%ADrez_Pedrajo_coordinadores_
      \endverb
      \keyw{Secundaria}
    \endentry
    \entry{mcleod2009a}{article}{}
      \name{author}{1}{}{%
        {{uniquename=0,hash=b9a4113d15bc2e553695d5ee33cee17d}{%
           family={McLeod},
           familyi={M\bibinitperiod},
           given={Kembrew},
           giveni={K\bibinitperiod}}}%
      }
      \strng{namehash}{b9a4113d15bc2e553695d5ee33cee17d}
      \strng{fullhash}{b9a4113d15bc2e553695d5ee33cee17d}
      \strng{authornamehash}{b9a4113d15bc2e553695d5ee33cee17d}
      \strng{authorfullhash}{b9a4113d15bc2e553695d5ee33cee17d}
      \field{sortinit}{M}
      \field{sortinithash}{2684bec41e9697b92699b46491061da2}
      \field{labelnamesource}{author}
      \field{labeltitlesource}{title}
      \field{issn}{1465-4121}
      \field{journaltitle}{Culture Machine}
      \field{title}{Crashing the Spectacle: A Forgotten History of Digital Sampling, Infringement, Copyright Liberation and the End of Recorded Music}
      \field{volume}{10}
      \field{year}{2009}
      \field{pages}{114\bibrangedash 130}
      \range{pages}{17}
      \verb{file}
      \verb :recursos/mcleod2009a.pdf:PDF
      \endverb
      \verb{url}
      \verb http://www.culturemachine.net/index.php/cm/issue/view/21
      \endverb
      \keyw{Secundaria}
    \endentry
    \entry{ming2016a}{inbook}{}
      \name{author}{1}{}{%
        {{uniquename=0,hash=bc4f9265a073cd10af778f808a46222e}{%
           family={Ming},
           familyi={M\bibinitperiod},
           given={Wu},
           giveni={W\bibinitperiod}}}%
      }
      \list{publisher}{1}{%
        {Perro Triste}%
      }
      \strng{namehash}{bc4f9265a073cd10af778f808a46222e}
      \strng{fullhash}{bc4f9265a073cd10af778f808a46222e}
      \strng{authornamehash}{bc4f9265a073cd10af778f808a46222e}
      \strng{authorfullhash}{bc4f9265a073cd10af778f808a46222e}
      \field{sortinit}{M}
      \field{sortinithash}{2684bec41e9697b92699b46491061da2}
      \field{labelnamesource}{author}
      \field{labeltitlesource}{title}
      \field{chapter}{Copyright y maremoto}
      \field{isbn}{9786079718404}
      \field{title}{¿Propiedad intelectual? Una recopilación de ensayos críticos}
      \field{year}{2016}
      \verb{file}
      \verb :recursos/varios-pi_pt.epub:ePUB
      \endverb
      \verb{url}
      \verb https://github.com/ColectivoPerroTriste/Ebooks/blob/master/Colecci%C3%B3n%20Delta/Libros/Propiedad%20intelectual/PropiedadIntelectual.epub
      \endverb
      \keyw{Secundaria}
    \endentry
    \entry{moore2012a}{article}{}
      \name{author}{1}{}{%
        {{uniquename=1,hash=73e969dbcb99907b9e044b769243e08c}{%
           family={Moore},
           familyi={M\bibinitperiod},
           given={Adam\bibnamedelima D.},
           giveni={A\bibinitperiod\bibinitdelim D\bibinitperiod}}}%
      }
      \strng{namehash}{73e969dbcb99907b9e044b769243e08c}
      \strng{fullhash}{73e969dbcb99907b9e044b769243e08c}
      \strng{authornamehash}{73e969dbcb99907b9e044b769243e08c}
      \strng{authorfullhash}{73e969dbcb99907b9e044b769243e08c}
      \field{sortinit}{M}
      \field{sortinithash}{2684bec41e9697b92699b46491061da2}
      \field{labelnamesource}{author}
      \field{labeltitlesource}{title}
      \field{journaltitle}{San Diego Law Review}
      \field{title}{A Lockean Theory of Intellectual Property Revisited}
      \field{volume}{50}
      \field{year}{2012}
      \verb{file}
      \verb :recursos/moore2012a.pdf:PDF
      \endverb
      \verb{url}
      \verb https://papers.ssrn.com/sol3/papers.cfm?abstract_id=2099073
      \endverb
      \keyw{Primaria}
    \endentry
    \entry{moore2008a}{inbook}{}
      \name{author}{1}{}{%
        {{uniquename=1,hash=73e969dbcb99907b9e044b769243e08c}{%
           family={Moore},
           familyi={M\bibinitperiod},
           given={Adam\bibnamedelima D.},
           giveni={A\bibinitperiod\bibinitdelim D\bibinitperiod}}}%
      }
      \name{editor}{1}{}{%
        {{hash=9c3536ef992c5b2c420164174a464806}{%
           family={Himma},
           familyi={H\bibinitperiod},
           given={Kenneth\bibnamedelima Einar},
           giveni={K\bibinitperiod\bibinitdelim E\bibinitperiod}}}%
      }
      \list{publisher}{1}{%
        {John Wiley \& Sons, Inc.}%
      }
      \strng{namehash}{73e969dbcb99907b9e044b769243e08c}
      \strng{fullhash}{73e969dbcb99907b9e044b769243e08c}
      \strng{authornamehash}{73e969dbcb99907b9e044b769243e08c}
      \strng{authorfullhash}{73e969dbcb99907b9e044b769243e08c}
      \strng{editornamehash}{9c3536ef992c5b2c420164174a464806}
      \strng{editorfullhash}{9c3536ef992c5b2c420164174a464806}
      \field{sortinit}{M}
      \field{sortinithash}{2684bec41e9697b92699b46491061da2}
      \field{labelnamesource}{author}
      \field{labeltitlesource}{title}
      \field{chapter}{Personality-Based, Rule-Utilitarian, and Lockean Justifications of Intellectual Property}
      \field{title}{The Handbook of Information and Computer Ethics}
      \field{year}{2008}
      \field{pages}{105\bibrangedash 130}
      \range{pages}{26}
      \verb{file}
      \verb Notas:recursos/moore2008a.txt:Text;:recursos/moore2008a.pdf:PDF
      \endverb
      \verb{url}
      \verb https://papers.ssrn.com/sol3/papers.cfm?abstract_id=1980852
      \endverb
      \keyw{Primaria}
    \endentry
    \entry{moore2014a}{article}{}
      \name{author}{2}{}{%
        {{uniquename=1,hash=b9151c9d570087a000ea3861c05b6f66}{%
           family={Moore},
           familyi={M\bibinitperiod},
           given={Adam},
           giveni={A\bibinitperiod}}}%
        {{uniquename=1,hash=543ee9be1204a9f6f5d3f187f0711feb}{%
           family={Himma},
           familyi={H\bibinitperiod},
           given={Ken},
           giveni={K\bibinitperiod}}}%
      }
      \name{editor}{1}{}{%
        {{hash=d9b6284b7816d9e586e8af9a253ba08e}{%
           family={Zalta},
           familyi={Z\bibinitperiod},
           given={Edward\bibnamedelima N.},
           giveni={E\bibinitperiod\bibinitdelim N\bibinitperiod}}}%
      }
      \list{publisher}{1}{%
        {Metaphysics Research Lab, Stanford University}%
      }
      \strng{namehash}{5b9bd5d28243f1307c73b5f2fac641f5}
      \strng{fullhash}{5b9bd5d28243f1307c73b5f2fac641f5}
      \strng{authornamehash}{5b9bd5d28243f1307c73b5f2fac641f5}
      \strng{authorfullhash}{5b9bd5d28243f1307c73b5f2fac641f5}
      \strng{editornamehash}{d9b6284b7816d9e586e8af9a253ba08e}
      \strng{editorfullhash}{d9b6284b7816d9e586e8af9a253ba08e}
      \field{sortinit}{M}
      \field{sortinithash}{2684bec41e9697b92699b46491061da2}
      \field{labelnamesource}{author}
      \field{labeltitlesource}{title}
      \field{edition}{Winter 2014}
      \field{journaltitle}{The Stanford Encyclopedia of Philosophy}
      \field{title}{Intellectual Property}
      \field{year}{2014}
      \verb{file}
      \verb notas:recursos/moore2014a.txt:Text;:recursos/moore2014a.html:URL
      \endverb
      \verb{url}
      \verb https://plato.stanford.edu/archives/win2014/entries/intellectual-property/
      \endverb
      \keyw{Primaria}
    \endentry
    \entry{nivon2016a}{inbook}{}
      \name{author}{1}{}{%
        {{uniquename=0,hash=83a048289578a068fc02076b38941923}{%
           family={Nivón},
           familyi={N\bibinitperiod},
           given={Eduardo},
           giveni={E\bibinitperiod}}}%
      }
      \list{publisher}{1}{%
        {Perro Triste}%
      }
      \strng{namehash}{83a048289578a068fc02076b38941923}
      \strng{fullhash}{83a048289578a068fc02076b38941923}
      \strng{authornamehash}{83a048289578a068fc02076b38941923}
      \strng{authorfullhash}{83a048289578a068fc02076b38941923}
      \field{sortinit}{N}
      \field{sortinithash}{925374ca63e7594de7fafdb83e64d41d}
      \field{labelnamesource}{author}
      \field{labeltitlesource}{title}
      \field{chapter}{Propiedad intelectual y política cultural}
      \field{isbn}{9786079718404}
      \field{title}{¿Propiedad intelectual? Una recopilación de ensayos críticos}
      \field{year}{2016}
      \verb{file}
      \verb :recursos/varios-pi_pt.epub:ePUB
      \endverb
      \verb{url}
      \verb https://github.com/ColectivoPerroTriste/Ebooks/blob/master/Colecci%C3%B3n%20Delta/Libros/Propiedad%20intelectual/PropiedadIntelectual.epub
      \endverb
      \keyw{Secundaria}
    \endentry
    \entry{ortmann2016a}{inbook}{}
      \name{author}{1}{}{%
        {{uniquename=0,hash=9e14be47b2408b0ea503c2c6e6b3cdd7}{%
           family={Ortmann},
           familyi={O\bibinitperiod},
           given={Cecilia},
           giveni={C\bibinitperiod}}}%
      }
      \list{publisher}{1}{%
        {Perro Triste}%
      }
      \strng{namehash}{9e14be47b2408b0ea503c2c6e6b3cdd7}
      \strng{fullhash}{9e14be47b2408b0ea503c2c6e6b3cdd7}
      \strng{authornamehash}{9e14be47b2408b0ea503c2c6e6b3cdd7}
      \strng{authorfullhash}{9e14be47b2408b0ea503c2c6e6b3cdd7}
      \field{sortinit}{O}
      \field{sortinithash}{7803d2715d5e795e70382b084ab8d00e}
      \field{labelnamesource}{author}
      \field{labeltitlesource}{title}
      \field{chapter}{Software libre, géneros y (des)igualdad: expandir los horizontes de la libertad}
      \field{isbn}{9786079718404}
      \field{title}{¿Propiedad intelectual? Una recopilación de ensayos críticos}
      \field{year}{2016}
      \verb{file}
      \verb :recursos/varios-pi_pt.epub:ePUB
      \endverb
      \verb{url}
      \verb https://github.com/ColectivoPerroTriste/Ebooks/blob/master/Colecci%C3%B3n%20Delta/Libros/Propiedad%20intelectual/PropiedadIntelectual.epub
      \endverb
      \keyw{Secundaria}
    \endentry
    \entry{palmer1990a}{article}{}
      \name{author}{1}{}{%
        {{uniquename=0,hash=b0b45ae296c93aa713feb71cd13fd141}{%
           family={Palmer},
           familyi={P\bibinitperiod},
           given={Tom\bibnamedelima G.},
           giveni={T\bibinitperiod\bibinitdelim G\bibinitperiod}}}%
      }
      \strng{namehash}{b0b45ae296c93aa713feb71cd13fd141}
      \strng{fullhash}{b0b45ae296c93aa713feb71cd13fd141}
      \strng{authornamehash}{b0b45ae296c93aa713feb71cd13fd141}
      \strng{authorfullhash}{b0b45ae296c93aa713feb71cd13fd141}
      \field{sortinit}{P}
      \field{sortinithash}{c0a4896d0e424f9ca4d7f14f2b3428e7}
      \field{labelnamesource}{author}
      \field{labeltitlesource}{title}
      \field{journaltitle}{Harvard Journal of Law \& Public Policy}
      \field{number}{3}
      \field{title}{Are Patents and Copyrights Morally Justified? The Philosophy of Property Rights and Ideal Objects}
      \field{volume}{13}
      \field{year}{1990}
      \field{pages}{817\bibrangedash 865}
      \range{pages}{49}
      \verb{file}
      \verb :recursos/palmer1990a.pdf:PDF
      \endverb
      \verb{url}
      \verb http://tomgpalmer.com/wp-content/uploads/papers/palmer-morallyjustified-harvard-v13n3.pdf
      \endverb
      \keyw{Secundaria}
    \endentry
    \entry{papatheo2016a}{inbook}{}
      \name{author}{1}{}{%
        {{uniquename=0,hash=bb04499687450b8a4a2031cfb40e68a3}{%
           family={Papathéodorou},
           familyi={P\bibinitperiod},
           given={Aris},
           giveni={A\bibinitperiod}}}%
      }
      \list{publisher}{1}{%
        {Perro Triste}%
      }
      \strng{namehash}{bb04499687450b8a4a2031cfb40e68a3}
      \strng{fullhash}{bb04499687450b8a4a2031cfb40e68a3}
      \strng{authornamehash}{bb04499687450b8a4a2031cfb40e68a3}
      \strng{authorfullhash}{bb04499687450b8a4a2031cfb40e68a3}
      \field{sortinit}{P}
      \field{sortinithash}{c0a4896d0e424f9ca4d7f14f2b3428e7}
      \field{labelnamesource}{author}
      \field{labeltitlesource}{title}
      \field{chapter}{Propiedad intelectual, copyright, patentes}
      \field{isbn}{9786079718404}
      \field{title}{¿Propiedad intelectual? Una recopilación de ensayos críticos}
      \field{year}{2016}
      \verb{file}
      \verb :recursos/varios-pi_pt.epub:ePUB
      \endverb
      \verb{url}
      \verb https://github.com/ColectivoPerroTriste/Ebooks/blob/master/Colecci%C3%B3n%20Delta/Libros/Propiedad%20intelectual/PropiedadIntelectual.epub
      \endverb
      \keyw{Secundaria}
    \endentry
    \entry{rangel2016a}{inbook}{}
      \name{author}{1}{}{%
        {{uniquename=0,hash=de5d837954cc714eb7eb8b690024b406}{%
           family={Rangel\bibnamedelima Medina},
           familyi={R\bibinitperiod\bibinitdelim M\bibinitperiod},
           given={David},
           giveni={D\bibinitperiod}}}%
      }
      \list{publisher}{1}{%
        {UNAM}%
      }
      \strng{namehash}{de5d837954cc714eb7eb8b690024b406}
      \strng{fullhash}{de5d837954cc714eb7eb8b690024b406}
      \strng{authornamehash}{de5d837954cc714eb7eb8b690024b406}
      \strng{authorfullhash}{de5d837954cc714eb7eb8b690024b406}
      \field{sortinit}{R}
      \field{sortinithash}{c7387613477035a752d935acfc3e3ea2}
      \field{labelnamesource}{author}
      \field{labeltitlesource}{title}
      \field{chapter}{I. Conceptos fundamentales del derecho intelectual mexicano}
      \field{isbn}{9701019423}
      \field{title}{Panorama del derecho mexicano. Derecho intelectual}
      \field{year}{2016}
      \verb{file}
      \verb :recursos/rangel2016a.pdf:PDF
      \endverb
      \verb{url}
      \verb https://biblio.juridicas.unam.mx/bjv/detalle-libro/1912-panorama-del-derecho-mexicano-derecho-intelectual
      \endverb
      \keyw{Secundaria}
    \endentry
    \entry{raymond2016a}{inbook}{}
      \name{author}{1}{}{%
        {{uniquename=0,hash=12f756c352c3021041a14f9e746d747c}{%
           family={Raymond},
           familyi={R\bibinitperiod},
           given={Eric\bibnamedelima Steven},
           giveni={E\bibinitperiod\bibinitdelim S\bibinitperiod}}}%
      }
      \list{publisher}{1}{%
        {Perro Triste}%
      }
      \strng{namehash}{12f756c352c3021041a14f9e746d747c}
      \strng{fullhash}{12f756c352c3021041a14f9e746d747c}
      \strng{authornamehash}{12f756c352c3021041a14f9e746d747c}
      \strng{authorfullhash}{12f756c352c3021041a14f9e746d747c}
      \field{sortinit}{R}
      \field{sortinithash}{c7387613477035a752d935acfc3e3ea2}
      \field{labelnamesource}{author}
      \field{labeltitlesource}{title}
      \field{chapter}{La catedral y el bazar}
      \field{isbn}{9786079718404}
      \field{title}{¿Propiedad intelectual? Una recopilación de ensayos críticos}
      \field{year}{2016}
      \verb{file}
      \verb :recursos/varios-pi_pt.epub:ePUB
      \endverb
      \verb{url}
      \verb https://github.com/ColectivoPerroTriste/Ebooks/blob/master/Colecci%C3%B3n%20Delta/Libros/Propiedad%20intelectual/PropiedadIntelectual.epub
      \endverb
      \keyw{Primaria}
    \endentry
    \entry{readium2017a}{online}{}
      \list{organization}{1}{%
        {EDRLab}%
      }
      \field{sortinit}{R}
      \field{sortinithash}{c7387613477035a752d935acfc3e3ea2}
      \field{labeltitlesource}{title}
      \field{title}{Readium LCP (Licensed Content Protection)}
      \verb{file}
      \verb :recursos/readium2017a.htm:URL
      \endverb
      \verb{url}
      \verb http://readium.org/projects/readium-lcp
      \endverb
      \keyw{Secundaria}
    \endentry
    \entry{rendueles2016a}{inbook}{}
      \name{author}{1}{}{%
        {{uniquename=0,hash=bc21fa201b0804dd18a1658a858b831e}{%
           family={Rendueles},
           familyi={R\bibinitperiod},
           given={César},
           giveni={C\bibinitperiod}}}%
      }
      \list{publisher}{1}{%
        {Perro Triste}%
      }
      \strng{namehash}{bc21fa201b0804dd18a1658a858b831e}
      \strng{fullhash}{bc21fa201b0804dd18a1658a858b831e}
      \strng{authornamehash}{bc21fa201b0804dd18a1658a858b831e}
      \strng{authorfullhash}{bc21fa201b0804dd18a1658a858b831e}
      \field{sortinit}{R}
      \field{sortinithash}{c7387613477035a752d935acfc3e3ea2}
      \field{labelnamesource}{author}
      \field{labeltitlesource}{title}
      \field{chapter}{Copiar, robar, mandar}
      \field{isbn}{9786079718404}
      \field{title}{¿Propiedad intelectual? Una recopilación de ensayos críticos}
      \field{year}{2016}
      \verb{file}
      \verb :recursos/varios-pi_pt.epub:ePUB
      \endverb
      \verb{url}
      \verb https://github.com/ColectivoPerroTriste/Ebooks/blob/master/Colecci%C3%B3n%20Delta/Libros/Propiedad%20intelectual/PropiedadIntelectual.epub
      \endverb
      \keyw{Secundaria}
    \endentry
    \entry{ringenbach2016a}{inbook}{}
      \name{author}{1}{}{%
        {{uniquename=0,hash=b4cad97413a07ad6daf3917539702937}{%
           family={Ringenbach},
           familyi={R\bibinitperiod},
           given={Jorge},
           giveni={J\bibinitperiod}}}%
      }
      \list{publisher}{1}{%
        {Perro Triste}%
      }
      \strng{namehash}{b4cad97413a07ad6daf3917539702937}
      \strng{fullhash}{b4cad97413a07ad6daf3917539702937}
      \strng{authornamehash}{b4cad97413a07ad6daf3917539702937}
      \strng{authorfullhash}{b4cad97413a07ad6daf3917539702937}
      \field{sortinit}{R}
      \field{sortinithash}{c7387613477035a752d935acfc3e3ea2}
      \field{labelnamesource}{author}
      \field{labeltitlesource}{title}
      \field{chapter}{El proyecto Creative Commons en México}
      \field{isbn}{9786079718404}
      \field{title}{¿Propiedad intelectual? Una recopilación de ensayos críticos}
      \field{year}{2016}
      \verb{file}
      \verb :recursos/varios-pi_pt.epub:ePUB
      \endverb
      \verb{url}
      \verb https://github.com/ColectivoPerroTriste/Ebooks/blob/master/Colecci%C3%B3n%20Delta/Libros/Propiedad%20intelectual/PropiedadIntelectual.epub
      \endverb
      \keyw{Secundaria}
    \endentry
    \entry{rojo2016a}{inbook}{}
      \name{author}{1}{}{%
        {{uniquename=0,hash=8efa13749aa2a17d5ad79695229e92ac}{%
           family={Rojo},
           familyi={R\bibinitperiod},
           given={Facundo},
           giveni={F\bibinitperiod}}}%
      }
      \list{publisher}{1}{%
        {Perro Triste}%
      }
      \strng{namehash}{8efa13749aa2a17d5ad79695229e92ac}
      \strng{fullhash}{8efa13749aa2a17d5ad79695229e92ac}
      \strng{authornamehash}{8efa13749aa2a17d5ad79695229e92ac}
      \strng{authorfullhash}{8efa13749aa2a17d5ad79695229e92ac}
      \field{sortinit}{R}
      \field{sortinithash}{c7387613477035a752d935acfc3e3ea2}
      \field{labelnamesource}{author}
      \field{labeltitlesource}{title}
      \field{chapter}{Fundamentos filosóficos de la doctrina del fair use}
      \field{isbn}{9786079718404}
      \field{title}{¿Propiedad intelectual? Una recopilación de ensayos críticos}
      \field{year}{2016}
      \verb{file}
      \verb :recursos/varios-pi_pt.epub:ePUB
      \endverb
      \verb{url}
      \verb https://github.com/ColectivoPerroTriste/Ebooks/blob/master/Colecci%C3%B3n%20Delta/Libros/Propiedad%20intelectual/PropiedadIntelectual.epub
      \endverb
      \keyw{Primaria}
    \endentry
    \entry{rose1993a}{book}{}
      \name{author}{1}{}{%
        {{uniquename=0,hash=205b0f9bb1c577db96ec10b738ffee79}{%
           family={Rose},
           familyi={R\bibinitperiod},
           given={Mark},
           giveni={M\bibinitperiod}}}%
      }
      \list{publisher}{1}{%
        {Harvard University Press}%
      }
      \strng{namehash}{205b0f9bb1c577db96ec10b738ffee79}
      \strng{fullhash}{205b0f9bb1c577db96ec10b738ffee79}
      \strng{authornamehash}{205b0f9bb1c577db96ec10b738ffee79}
      \strng{authorfullhash}{205b0f9bb1c577db96ec10b738ffee79}
      \field{sortinit}{R}
      \field{sortinithash}{c7387613477035a752d935acfc3e3ea2}
      \field{labelnamesource}{author}
      \field{labeltitlesource}{title}
      \field{isbn}{0674053087}
      \field{title}{Authors and Owners: The Invention of Copyright}
      \field{year}{1993}
      \verb{file}
      \verb :recursos/rose1993a.pdf:PDF
      \endverb
      \verb{url}
      \verb https://monoskop.org/File:Rose_Mark_Authors_and_Owners_The_Invention_of_Copyright.pdf
      \endverb
      \keyw{Secundaria}
    \endentry
    \entry{sanchez2016a}{inbook}{}
      \name{author}{1}{}{%
        {{uniquename=0,hash=ac624f7e6b28bdd9d3864b193127f17e}{%
           family={Sánchez},
           familyi={S\bibinitperiod},
           given={León\bibnamedelima Felipe},
           giveni={L\bibinitperiod\bibinitdelim F\bibinitperiod}}}%
      }
      \list{publisher}{1}{%
        {Perro Triste}%
      }
      \strng{namehash}{ac624f7e6b28bdd9d3864b193127f17e}
      \strng{fullhash}{ac624f7e6b28bdd9d3864b193127f17e}
      \strng{authornamehash}{ac624f7e6b28bdd9d3864b193127f17e}
      \strng{authorfullhash}{ac624f7e6b28bdd9d3864b193127f17e}
      \field{sortinit}{S}
      \field{sortinithash}{fd1e7c5ab79596b13dbbb67f8d70fb5a}
      \field{labelnamesource}{author}
      \field{labeltitlesource}{title}
      \field{chapter}{¿Software libre o de élite?}
      \field{isbn}{9786079718404}
      \field{title}{¿Propiedad intelectual? Una recopilación de ensayos críticos}
      \field{year}{2016}
      \verb{file}
      \verb :recursos/varios-pi_pt.epub:ePUB
      \endverb
      \verb{url}
      \verb https://github.com/ColectivoPerroTriste/Ebooks/blob/master/Colecci%C3%B3n%20Delta/Libros/Propiedad%20intelectual/PropiedadIntelectual.epub
      \endverb
      \keyw{Secundaria}
    \endentry
    \entry{schroeder2004a}{misc}{}
      \name{author}{1}{}{%
        {{uniquename=0,hash=9a7c8c7ba499e4bb5651bc4eb35c9f8c}{%
           family={Schroeder},
           familyi={S\bibinitperiod},
           given={Jeanne},
           giveni={J\bibinitperiod}}}%
      }
      \strng{namehash}{9a7c8c7ba499e4bb5651bc4eb35c9f8c}
      \strng{fullhash}{9a7c8c7ba499e4bb5651bc4eb35c9f8c}
      \strng{authornamehash}{9a7c8c7ba499e4bb5651bc4eb35c9f8c}
      \strng{authorfullhash}{9a7c8c7ba499e4bb5651bc4eb35c9f8c}
      \field{sortinit}{S}
      \field{sortinithash}{fd1e7c5ab79596b13dbbb67f8d70fb5a}
      \field{labelnamesource}{author}
      \field{labeltitlesource}{title}
      \field{title}{Unnatural Rights: Hegel And Intellectual Propery}
      \field{year}{2004}
      \verb{file}
      \verb :recursos/schroeder2004a.pdf:PDF
      \endverb
      \verb{url}
      \verb https://papers.ssrn.com/sol3/papers.cfm?abstract_id=518182
      \endverb
      \keyw{Primaria}
    \endentry
    \entry{shiffrin2007a}{inbook}{}
      \name{author}{1}{}{%
        {{uniquename=0,hash=c9511793c6cfe85dd671d3bf7cd1d98f}{%
           family={Shiffrin},
           familyi={S\bibinitperiod},
           given={Seana\bibnamedelima Valentine},
           giveni={S\bibinitperiod\bibinitdelim V\bibinitperiod}}}%
      }
      \list{publisher}{1}{%
        {Blackwell}%
      }
      \strng{namehash}{c9511793c6cfe85dd671d3bf7cd1d98f}
      \strng{fullhash}{c9511793c6cfe85dd671d3bf7cd1d98f}
      \strng{authornamehash}{c9511793c6cfe85dd671d3bf7cd1d98f}
      \strng{authorfullhash}{c9511793c6cfe85dd671d3bf7cd1d98f}
      \field{sortinit}{S}
      \field{sortinithash}{fd1e7c5ab79596b13dbbb67f8d70fb5a}
      \field{labelnamesource}{author}
      \field{labeltitlesource}{title}
      \field{chapter}{Intellectual Property}
      \field{title}{A Companion to Contemporary Political Philosophy}
      \field{year}{2007}
      \field{pages}{653\bibrangedash 668}
      \range{pages}{16}
      \verb{file}
      \verb Notas:recursos/shiffrin2007a.txt:Text;:recursos/shiffrin2007a.pdf:PDF
      \endverb
      \verb{url}
      \verb https://www.academia.edu/3428807/Intellectual_Property
      \endverb
      \keyw{Primaria}
    \endentry
    \entry{stallman2004a}{inbook}{}
      \name{author}{1}{}{%
        {{uniquename=0,hash=1dfe179dc9301b7f9e2ce5c352009d00}{%
           family={Stallman},
           familyi={S\bibinitperiod},
           given={Richard},
           giveni={R\bibinitperiod}}}%
      }
      \name{editor}{1}{}{%
        {{hash=f5d3941bed85dff5c193687659733c6d}{%
           family={Gradin},
           familyi={G\bibinitperiod},
           given={Carlos},
           giveni={C\bibinitperiod}}}%
      }
      \list{publisher}{1}{%
        {Editora Fantasma}%
      }
      \strng{namehash}{1dfe179dc9301b7f9e2ce5c352009d00}
      \strng{fullhash}{1dfe179dc9301b7f9e2ce5c352009d00}
      \strng{authornamehash}{1dfe179dc9301b7f9e2ce5c352009d00}
      \strng{authorfullhash}{1dfe179dc9301b7f9e2ce5c352009d00}
      \strng{editornamehash}{f5d3941bed85dff5c193687659733c6d}
      \strng{editorfullhash}{f5d3941bed85dff5c193687659733c6d}
      \field{sortinit}{S}
      \field{sortinithash}{fd1e7c5ab79596b13dbbb67f8d70fb5a}
      \field{labelnamesource}{author}
      \field{labeltitlesource}{title}
      \field{chapter}{¿Por qué las escuelas deberian usar solo software libre?}
      \field{isbn}{9872180806}
      \field{title}{:(){ :|:\& };: Internet, hackers y software libre}
      \field{year}{2004}
      \verb{file}
      \verb :recursos/stallman2004a.epub:ePUB
      \endverb
      \verb{url}
      \verb http://www.epubgratis.org/internet-hackers-y-software-libre-carlos-gradin/
      \endverb
      \keyw{Secundaria}
    \endentry
    \entry{stallman2016a}{inbook}{}
      \name{author}{1}{}{%
        {{uniquename=0,hash=1dfe179dc9301b7f9e2ce5c352009d00}{%
           family={Stallman},
           familyi={S\bibinitperiod},
           given={Richard},
           giveni={R\bibinitperiod}}}%
      }
      \list{publisher}{1}{%
        {Perro Triste}%
      }
      \strng{namehash}{1dfe179dc9301b7f9e2ce5c352009d00}
      \strng{fullhash}{1dfe179dc9301b7f9e2ce5c352009d00}
      \strng{authornamehash}{1dfe179dc9301b7f9e2ce5c352009d00}
      \strng{authorfullhash}{1dfe179dc9301b7f9e2ce5c352009d00}
      \field{sortinit}{S}
      \field{sortinithash}{fd1e7c5ab79596b13dbbb67f8d70fb5a}
      \field{labelnamesource}{author}
      \field{labeltitlesource}{title}
      \field{chapter}{El manifiesto de GNU}
      \field{isbn}{9786079718404}
      \field{title}{¿Propiedad intelectual? Una recopilación de ensayos críticos}
      \field{year}{2016}
      \verb{file}
      \verb :recursos/varios-pi_pt.epub:ePUB
      \endverb
      \verb{url}
      \verb https://github.com/ColectivoPerroTriste/Ebooks/blob/master/Colecci%C3%B3n%20Delta/Libros/Propiedad%20intelectual/PropiedadIntelectual.epub
      \endverb
      \keyw{Primaria}
    \endentry
    \entry{stengel2004a}{article}{}
      \name{author}{1}{}{%
        {{uniquename=0,hash=28a63b2dba677d5cf37b01e20d873545}{%
           family={Stengel},
           familyi={S\bibinitperiod},
           given={Daniel},
           giveni={D\bibinitperiod}}}%
      }
      \list{publisher}{1}{%
        {Franz Steiner Verlag}%
      }
      \strng{namehash}{28a63b2dba677d5cf37b01e20d873545}
      \strng{fullhash}{28a63b2dba677d5cf37b01e20d873545}
      \strng{authornamehash}{28a63b2dba677d5cf37b01e20d873545}
      \strng{authorfullhash}{28a63b2dba677d5cf37b01e20d873545}
      \field{sortinit}{S}
      \field{sortinithash}{fd1e7c5ab79596b13dbbb67f8d70fb5a}
      \field{labelnamesource}{author}
      \field{labeltitlesource}{title}
      \field{issn}{0001-2343}
      \field{journaltitle}{ARSP: Archiv für Rechts- und Sozialphilosophie / Archives for Philosophy of Law and Social Philosophy}
      \field{number}{1}
      \field{title}{Intellectual Property in Philosophy}
      \field{volume}{90}
      \field{year}{2004}
      \field{pages}{20\bibrangedash 50}
      \range{pages}{31}
      \verb{file}
      \verb Notas:recursos/stengel2004a.txt:Text;:recursos/stengel2004a.pdf:PDF
      \endverb
      \verb{url}
      \verb http://www.jstor.org/stable/23681627
      \endverb
      \keyw{Primaria}
    \endentry
    \entry{wayner2000a}{book}{}
      \name{author}{1}{}{%
        {{uniquename=0,hash=129b7a7e50be4ff3cf2be84f7f1f53f3}{%
           family={Wayner},
           familyi={W\bibinitperiod},
           given={Peter},
           giveni={P\bibinitperiod}}}%
      }
      \list{publisher}{1}{%
        {HarperBusiness}%
      }
      \strng{namehash}{129b7a7e50be4ff3cf2be84f7f1f53f3}
      \strng{fullhash}{129b7a7e50be4ff3cf2be84f7f1f53f3}
      \strng{authornamehash}{129b7a7e50be4ff3cf2be84f7f1f53f3}
      \strng{authorfullhash}{129b7a7e50be4ff3cf2be84f7f1f53f3}
      \field{sortinit}{W}
      \field{sortinithash}{99e3ba1b3f78bb6f073e7fa7ac11636b}
      \field{labelnamesource}{author}
      \field{labeltitlesource}{title}
      \field{isbn}{0066620503}
      \field{title}{Free for All: How Linux and the Free Software Movement Undercut the High-Tech Titans}
      \field{year}{2000}
      \verb{file}
      \verb :recursos/wayner2000a.pdf:PDF
      \endverb
      \verb{url}
      \verb http://docview1.tlvnimg.com/tailieu/2013/20130123/nguyenhuucanh1212/freeforall_4199.pdf
      \endverb
      \keyw{Secundaria}
    \endentry
    \entry{sam2010a}{book}{}
      \name{author}{1}{}{%
        {{uniquename=1,hash=53567d28963d8753214cd2a15d32e79a}{%
           family={Williams},
           familyi={W\bibinitperiod},
           given={Sam},
           giveni={S\bibinitperiod}}}%
      }
      \list{publisher}{1}{%
        {Free Software Foundation, Inc}%
      }
      \strng{namehash}{53567d28963d8753214cd2a15d32e79a}
      \strng{fullhash}{53567d28963d8753214cd2a15d32e79a}
      \strng{authornamehash}{53567d28963d8753214cd2a15d32e79a}
      \strng{authorfullhash}{53567d28963d8753214cd2a15d32e79a}
      \field{sortinit}{W}
      \field{sortinithash}{99e3ba1b3f78bb6f073e7fa7ac11636b}
      \field{labelnamesource}{author}
      \field{labeltitlesource}{title}
      \field{isbn}{9780983159216}
      \field{title}{Free as in Freedom (2.0)}
      \field{year}{2010}
      \verb{file}
      \verb :recursos/sam2010a.pdf:PDF
      \endverb
      \verb{url}
      \verb https://sagitter.fedorapeople.org/faif-2.0.pdf
      \endverb
      \keyw{Secundaria}
    \endentry
    \entry{htec1988a}{book}{}
      \name{author}{1}{}{%
        {{uniquename=1,hash=8dd151d14402b2eacac96654cc1fd766}{%
           family={Williams},
           familyi={W\bibinitperiod},
           given={T.I.},
           giveni={T\bibinitperiod}}}%
      }
      \list{publisher}{1}{%
        {Siglo XXI}%
      }
      \strng{namehash}{8dd151d14402b2eacac96654cc1fd766}
      \strng{fullhash}{8dd151d14402b2eacac96654cc1fd766}
      \strng{authornamehash}{8dd151d14402b2eacac96654cc1fd766}
      \strng{authorfullhash}{8dd151d14402b2eacac96654cc1fd766}
      \field{sortinit}{W}
      \field{sortinithash}{99e3ba1b3f78bb6f073e7fa7ac11636b}
      \field{labelnamesource}{author}
      \field{labeltitlesource}{title}
      \field{isbn}{978-9-68-231448-3}
      \field{title}{Historia de la tecnología}
      \field{volume}{4}
      \field{year}{1988}
      \keyw{Secundaria}
    \endentry
    \entry{htec1988b}{book}{}
      \name{author}{1}{}{%
        {{uniquename=1,hash=8dd151d14402b2eacac96654cc1fd766}{%
           family={Williams},
           familyi={W\bibinitperiod},
           given={T.I.},
           giveni={T\bibinitperiod}}}%
      }
      \list{publisher}{1}{%
        {Siglo XXI}%
      }
      \strng{namehash}{8dd151d14402b2eacac96654cc1fd766}
      \strng{fullhash}{8dd151d14402b2eacac96654cc1fd766}
      \strng{authornamehash}{8dd151d14402b2eacac96654cc1fd766}
      \strng{authorfullhash}{8dd151d14402b2eacac96654cc1fd766}
      \field{sortinit}{W}
      \field{sortinithash}{99e3ba1b3f78bb6f073e7fa7ac11636b}
      \field{labelnamesource}{author}
      \field{labeltitlesource}{title}
      \field{isbn}{978-9-68-231449-0}
      \field{title}{Historia de la tecnología}
      \field{volume}{5}
      \field{year}{1988}
      \keyw{Secundaria}
    \endentry
    \entry{yudice2008a}{inbook}{}
      \name{author}{1}{}{%
        {{uniquename=0,hash=5b502cda997ee62ad05bb37cadb7479e}{%
           family={Yúdice},
           familyi={Y\bibinitperiod},
           given={George},
           giveni={G\bibinitperiod}}}%
      }
      \name{editor}{2}{}{%
        {{hash=e58695bc8d178b9cc8a87d3e80508a84}{%
           family={López},
           familyi={L\bibinitperiod},
           given={Albert},
           giveni={A\bibinitperiod}}}%
        {{hash=76ad83196464f4f833da97a57490b9d5}{%
           family={Ramírez},
           familyi={R\bibinitperiod},
           given={Eduardo},
           giveni={E\bibinitperiod}}}%
      }
      \list{publisher}{1}{%
        {Centro Cultural de España en México — Universidad de las Américas Puebla}%
      }
      \strng{namehash}{5b502cda997ee62ad05bb37cadb7479e}
      \strng{fullhash}{5b502cda997ee62ad05bb37cadb7479e}
      \strng{authornamehash}{5b502cda997ee62ad05bb37cadb7479e}
      \strng{authorfullhash}{5b502cda997ee62ad05bb37cadb7479e}
      \strng{editornamehash}{a1c70f3ab9b94a9da20ddf3ad0b100fe}
      \strng{editorfullhash}{a1c70f3ab9b94a9da20ddf3ad0b100fe}
      \field{sortinit}{Y}
      \field{sortinithash}{3cbc1e3d286284cedb5e5218a3248f94}
      \field{labelnamesource}{author}
      \field{labeltitlesource}{title}
      \field{chapter}{El copyright: instrumento de expropiación y resistencia}
      \field{title}{Propiedad intelectual, nuevas tecnologías y libre acceso a la cultura}
      \field{year}{2008}
      \verb{file}
      \verb :recursos/varios-pi_nt_lia.pdf:PDF
      \endverb
      \verb{url}
      \verb https://www.academia.edu/2057461/Propiedad_intelectual_nuevas_tecnolog%C3%ADas_y_libre_acceso_a_la_cultura_-_Alberto_L%C3%B3pez_Cuenca_Eduardo_Ram%C3%ADrez_Pedrajo_coordinadores_
      \endverb
      \keyw{Secundaria}
    \endentry
  \endsortlist
\endrefsection
\endinput

